Entity Name,Elobrations,Related Contents,Alternative Name,Type,Modern Name
Abacan,[' a Tartar general'],[],[],PERSON,
Abah,[' one of the cities of the Magi'],[],"['Avah', ' Ava']",GPE,16 miles S.S.E. of S??vah
Abaka,[' Khan of Persia'],[],['Abaga'],PERSON,
Abano,"[' Pietro of', ' his notice of Polo']",[],[],PERSON,
Abash,[' kingdom of'],"['The inhibitants converted by St Thomas', 'Its king defated the ruler of Adel (Aden) 326', 'Productions of the country', "" its king's punishment of Soldan of Aden;"", ' dominion on the coast, mediaeval history and chronology;', ' table of kings;', ' wars with Mahomedan states']","['Habsh', 'Abyssinia', 'abascia ']",GPE,Abyssinia
Abraiaman,[],"['fish-charmers to the pearl fishery;', ' their character and virtues;', ' their king;', ' their omens;', ' longevity;', ' _Chughi_;', ' Palladian legend of']",['Brahmans'],NORP,
Abulfeda,[' his geography;'],[' at the siege of Acre'],[],PERSON,
Acbalec Manzi,"[' ""White City of the Manzi frontier""']",[],[],GPE,Hanzhong
Accambale,[' king of Champa'],[],['Sinhopala'],PERSON,
Achmath,"[' the Bailo', ' of Fenaket', ' his power', ' oppressions', ' death', '']",[],"['Ahmad', 'Achmac']",PERSON,
Acomat Soldan,"[' Khan of Persia', ' the Saracen', ' contends for the Persian empire']","[' seizes throne of Tabriz;', ' goes to encounter Argon;', ' rejects his remonstrance;', ' defeats and takes him;', "" hears of Argon's escape, is taken and put to death;"", ' notes on the history', 'His battle with Argon', ' Is seized and slain']",['Ahmad Sultan'],PERSON,
Acqui,"["" Friar Jacopo d'"", ' his notice of Polo']",[],[],PERSON,
Acre,[' a city of Palestine'],"[' Broils at, between Venetians and Genoese;', ' plan of;', ' captured by Saracens;', ' wickedness of;', ' Polos at']",[],GPE,Acre
Adam's Apple,[],[],[],OTHERS,
Adam's sepulchre,"[""on mountain (Adam's Peak) in Ceylon"", 'a mountain of Ceylon']","[' rubies;', ' his teeth, hair, etc.;', ' the footmark']","[""Adam's Peak""]",FAC,
Aden,[' a kingdom and city of Eastern Africa'],"[' Horse and other Trade with India', "" Soldan's treatment of a bishop;"", ' Vengeance of King of Abyssinia on him;', ' confused with Adel;', ' account of Kingdom;', ' the Sultan;', ' intercourse and trade with China, tanks;', ' view of', 'Is invaded by the King of Absscia', ' 326Aden', ' a city and and kingdom of Arabia', 'Inhabitated by Sarcens', 'A great seat of Indian commerce', ' ib', 'Its sultan assists Saladin in the siege of Acre']",['Adel'],GPE,Aden
Adoration of the Emperor,[],[],[],OTHERS,
Aguil,[' Mongol general'],[],[],PERSON,
Aijaruc,"["" Kaidu's daughter"", '']","[' her strength and prowess;', ' her name']",[],PERSON,
Alan country,['the country of the Alans on the northern skirts of the Caucasus and towards the Caspian'],[],['Alania'],GPE,Alaniya?
Alans,"[' or Aas', ' massacre at Chang-chau of', '']",[' employed under Mongols'],"['Aas', 'Asu']",NORP,
Alaone,[' the name'],[],[],PERSON,
Alarm Tower,[''],"[' at Cambaluc', 'at Kinsay']",[],FAC,
Alauddin,"[' the old Man of the Mountain', 'See Alaodin']","['His garden and castle', 'How he trained and employed his assassins', 'His death']","['Alaodin', 'Old Man of the Mountain', 'Aloadin']",PERSON,
Alauddin of Miafarakain,"["" an engineer in Kublai's service""]",[],['Alawating of Mufali'],PERSON,
Alauddin Khilji,[' Sultan of Delhi'],[],[],PERSON,
Alboquerque,[],[],"[""D'Alboquerque""]",PERSON,
Alchemy,"["" Kublai's""]",[],[],OTHERS,
Alexander the Great,"[' allusions to legends and romances about', '']","['  his rampart (Iron Gate);', '  the curtains at a banquet given by;', '  and the _ferrum candidum_;', '  site of his battle with Darius;', '  his wife Roxana;', '  kills a lion;', '  Princes claiming descent from (Zulcarniain);', '  his horse Bucephalus;', ""  fixes chains on Adam's Peak;"", '  said to have colonised Socotra;', '  his tower on the border of Darkness']",[],PERSON,
Alexandria,[''],[' trade from India to'],[],GPE,Alexandria
Alligator,"[' in Carajan', '']","[' mode of killing;', ' eaten;', ' prophecy of Bhartpur about']",['Crocodiles'],NORP,
Almanacs,[' Chinese (Tacuin)'],[],[],OTHERS,
Almonds,[],[],[],PRODUCT,
Aloes,[' Socotrine'],[],[],PRODUCT,
Aloes wood,[],[],['Lign-aloes'],PRODUCT,
Alor,[' war cry'],[],[],OTHERS,
Altai,[''],"[""  the Khan's burial-place;"", '  used for the Khingan range']",['Altay'],LOC,Altai
Ambergris,[''],[' how got'],[],PRODUCT,
Amien,[],"[' king of', 'his battle with Tartars;', ' City of;', ' its gold and silver towers;', ' how it was conquered;', ' communications and war with Mongols;', ' Chinese notices']","['Mien', 'Burma', 'Ava']",GPE,Myanmar?
Amu,[],[],"['Anin',' Aniu', 'Bamoo']",GPE,Annam
Ancestor Worship,[],[],[],OTHERS,
Anchors,[' Wooden'],[],[],PRODUCT,
Andaine,[],[],"['Ondanique', 'Andena', 'Andanicum', ' Hundwaniy']",PRODUCT,
Andaman,['island'],"['  described;', '  people;', '  form of the word']","['Angamanain', 'Angaman  islands']",LOC,Andaman?
Angkor,[' ruins of'],[],[],LOC,Angkor
Animal Patterns,[],[],['Patterns'],OTHERS,
Apples of Paradise,[],[],['Konars'],PRODUCT,
Apushka,[' Tartar envoy from Persia'],[],['Apusca'],PERSON,
Arab geography,[],[],[],OTHERS,
Arab colonies in Madagascar,[],[],[],OTHERS,
Arab horses,[' early literary recognition of;'],"['  trade in, see  Horses']",[],PRODUCT,
Arab merchants,[' in Southern India'],[],[],NORP,
Arab Seamen's Traditions about Java,[],[],[],OTHERS,
Arabi,[],[],['Arabs'],NORP,
Arabia,[],[],[],GPE,Arabia
Araines,[],[],[],OTHERS,
Aram,[' Place of the'],[],['Haram'],GPE,
Ararat,"[' Mount', '', ' a celebrated mountain of Armenia']",['  ascents of'],[],LOC,Ararat
Arblasts,[' crossbows'],[],[],OTHERS,
Arbre Sol,"[' Region of the (Khorasan)', '']","['  tree described--_Chinar_ or Oriental plane;', '  various readings;', '  _Arbre seul_, a wrong reading;', '  Tree of the Sun legend;', '  Christian legend of the Dry Tree;', '  engrafted on legends of Alexander;', '  Trees of Grace in Persia;', '  Dry Trees in Mahomedan legend;', '  in Rabbinical and Buddhist stories, and legends of the Wood of the', '    Cross;', ""  Polo's _Arbre Sec_ to be sought near Damghan;"", '  Sabaean apologue;', '  clue to the term _Arbre Sec_']",['Arbre Sec'],LOC,Khorasan
Arcali,[],[],"[' Arculin', 'Erculin']",PRODUCT,
Arghun,"["" Khan of Persia (Polo's Argon"", ' Lord of the Levant)', '']","['  sends an embassy to Kublai for a wife;', '  is dead when she arrives;', '  his unhappy use of the elixir vitae;', '  advances against his uncle Ahmad;', '  harangues his chiefs;', '  sends Ahmad a remonstrance;', '  is taken prisoner;', '  released by certain chiefs;', '  obtains sovereignty;', '  his death;', '  his beauty']",[],PERSON,
Argons,[' half-breeds'],[],[],NORP,
Ariora-Keshemur,[''],['  meaning of _Ariora_'],[],GPE,
Aristotle,[],[],[],PERSON,
Arjish,[],[],['Arzizi'],GPE,
Armenia,[' Greater'],[],[],GPE,
Armenia,[' Lesser or Cilician'],[],['Hermenia'],GPE,
Armenians,[],[],[],NORP,
Armour of boiled leather,[],[],['Cuirbouly'],PRODUCT,
Arms of Kerman,[''],['  of the Tartars'],[],PRODUCT,
Arrows,[' Tartar'],[],[],PRODUCT,
Arzinga,[],[],"['Erzingan', ' Erzinga', ' Eriza', 'Erzinjan']",GPE,
Arziron,[],[],['Erzrum'],GPE,
Asbestos,[' and the Salamander'],[],[],PRODUCT,
Asceticism of the Sensin,[''],['  of the Jogis'],[],OTHERS,
Asedin,[' Sultan of Delhi)'],[],['Ghaiassuddin Balba'],PERSON,
Ashar,[' king of Cail'],[],['Asciar'],PERSON,
Ashishin,['Ismailites'],"['how the Old Man trained them;', 'murders by;', '  their destruction;', '  survival and recent circumstances of the sect']","['Assassins',  'Hashishin']",NORP,
Asper,[' about a groat'],[],['akche'],PRODUCT,
Asses,[''],"[' in Persia', '  in Mongolia;', '  in Madagascar;', '  in Abyssinia;', '  in Far North']",[],FAC,
Asterius,[' Bishop of Amasia in Pontus'],[],[],PERSON,
Astrolabe,[],[],[],PRODUCT,
Astrology,"[' -ers', '']","[' in Tangut', '  of Chinghiz;', ""  at Kublai's Court;"", '  at Cambaluc;', '  of Tibet;', '  at Kinsay;', '  in Maabar;', '  in Coilum']",[],OTHERS,
Atabegs,[''],"[' of Mosul', ' of Lur;', ' of Fars;', ' of Yezd;', ' of Kerman']",[],PERSON,
Attagas,[],[],['Black Partridge'],PRODUCT,
Augury,"[' much regarded in Maabar', '']",['  by the Brahmans'],['Omens'],OTHERS,
Aung,[],"[' Tartar tribute to;', ' account of;', ' marriage relations with Chinghiz;', "" insults Chinghiz' envoys;"", ' ""these be no soldiers"";', ' marches to meet Chinghiz;', ' real site of battle with Chinghiz;', ' his real fate;', ' slain in battle;', ' his lineage in Tenduc;', ' and the Golden King']","['Unc Can', 'Prester John', ' Ouang Kha']",PERSON,
Avarian,[' epithet of S. Thomas'],[],[],PERSON,
Avigi,['afci (falco montanus)'],[],[],PRODUCT,
Ayas,"[' port of Cilician Armenia', '']",['  Sea fight at'],"['Layas', ' Aiazzo', 'Leyes']",GPE,
Ayuthia,[],[],[],GPE,
Azumiti,[],[],[],GPE,
Azure,"[' Ultramarine (_lapis armenus_) Mines in Badakhshan', '']","['  in Tenduc;', '  ore']",[],PRODUCT,
Baboons,[' etymology'],"['Babylon, Babylonia (Cairo or Egypt),', ' Sultan of']",[],GPE,
Bacon,"[' Roger', '']",[' as geographer'],[],PERSON,
Badakhshan,[''],"[' its population;', ' capitals of;', ' Mirs of;', ' legend of Alexandrian pedigree of its kings;', ' depopulation of;', ' scenery;', ' dialects;', ' forms of the name;', ' great river of (Upper Oxus)']","['Badashan', 'Badascia']",GPE,
Badghis,[],[],[],GPE,
Badgir,[' Wind-catchers'],[],[],PRODUCT,
Baghdad,"[' taken by Alau', ' Hulaku', '']","[' its Khalif;', '  the miracle of the mountain', 'Archbishop of', 'its indigo (baccadeo)','Its rich cloths and great wealth']","[ 'Baldac', 'Baudas','Baldach','Bagdad']",GPE,
Baidu Khan,[''],"['seizes throne of Persia;', ' displaced and killed by Ghazan;', ' alleged to be a Christian']",[],PERSON,
Bailo,"[' the title', '']",[' etymology of'],[],PERSON,
Bakhshi,"[' Lamas', '']","[' their enchantments;', ' various meanings of the word']",['Bacsi'],NORP,
Baku,"[' oil fields of', '']",[' Sea of (Caspian)'],[],GPE,
Balas rubies,[],[],[],PRODUCT,
Baldacchini,[' brocades made at Baghdad'],[],['Baudekins'],PRODUCT,
Baldwin II.,[' last Latin Emperor of Constantinople'],[],['de Courtenay'],PERSON,
Balkh,[],[],"['Balc', 'Balk']",GPE,Balkh
Balor,"[' Balaur', ' Bilaur', ' Malaur', ' Bolor']",[],"['Balaur', 'Bilaur', 'Malaur', 'Bolor']",GPE,
Balustrade,[' etymology of the word'],[],[],PRODUCT,
Bamboo,['always called canes by Polo'],"['  its multifarious uses;', ""  Kublai's Chandu Palace made of;"", '  great, on banks of Caramoran river;', '  explode loudly when burning;', '  large in Tibet;', '  ropes of;', '  in Che kiang']",[],PRODUCT,
Bam-i-Duniah,['Roof of the World'],[],[],LOC,
Baptism,"[' accompanied by branding', ' in Abyssinia']",[],[],OTHERS,
Barac,[' Khan of Chagatai'],['his war with Arghun'],['Borrak'],PERSON,
Barbarossa,[' Frederic'],[],[],PERSON,
Barberino,[' Francesco da'],[],[],PERSON,
Bargu,[' plain'],[],"['Barguchin Tugrum', 'Barguti']",GPE,
Barguerlac,"['Syrrhaptes Pallasii', ' a kind of sand grouse', '']",['its migration into England'],['Syrrhaptes Pallasii'],PRODUCT,
Bark,[''],"[' money made from', '  fine clothes from']",[],PRODUCT,
Barka,"[' Khan', ' ruler of Kipchak', '']",[' his war with Hulaku'],['Barca'],PERSON,
Barkut,[ ' eagle trained to the chase'],[],"[' burgut ', 'bearcoote']",PRODUCT,
Barlaam and Josaphat,"[' Story of Saints', ' from Legend of Buddha']",[],[],PERSON,
Barley,[' huskless'],[],[],PRODUCT,
Barons,"["" Kaan's twelve""]",[],[],NORP,
Barozzi,[' Nicolo'],[],[],PERSON,
Barros,"[' John de', '']",['  geography of'],[],PERSON,
Barskul,['Leopard Lake'],[],['Barscol'],GPE,
Bartizan,"["" Kublai's wooden""]",[],[],PRODUCT,
Basma,['a kingdom of Sumatra'],[],"['Pasei', 'Pacem', ]",GPE,
Basmuls,[' half-breeds'],[],['Guasmuls'],NORP,
Basra,[' noted for its date-groves'],[],['Bastra'],GPE,
Baths,"[' natural hot', ' near Hormuz', '']","['  in Cathay;', '  public at Kinsay']",[],LOC,
Bats,"[' large', ' in India']",[],[],PRODUCT,
Battles,"[' Kublai _v._ Nayan', '']","[' Tartars _v._ king of Mien;', "" Caidu _v._ Khan's forces;"", ' Borrak and Arghun;', ' Arghun and Ahmad;', ' Hulaku and Barka;', ' Toktai and Nogai']",[],OTHERS,
Batu,"[' Khan of Kipchak', ' founder of Sarai', '']","['  invades Russia;', '  made by Polo into two kings--Sain and Patu;', '  his character and cruelty']","['Patu', 'Sain Khan','Baatu']",PERSON,
Bauduin de Sebourc,[],[],[],PERSON,
Bayan Chingsian,"["" Kublai's greatest Captain"", '']","[' prophecy connected with his name;', ' his conquest of Manzi or South China;', ' his history and character;', ' his exceptional cruelty at Chang-chau']",[],PERSON,
Bayan,"["" Kublai's Master of the Hounds""]",[],"['Baian', 'Payan', 'Bayam']",PERSON,
Beads,[' Hindu'],[],[],PRODUCT,
Bears,[''],['  white in Far North'],[],PRODUCT,
Beaten gold,[],[],[],PRODUCT,
Beef,"[' not eaten in Maabar', ' except by the Govi', '']",[' formerly eaten in India'],[],PRODUCT,
Bejas,[' of the Red Sea Coast'],[],[],NORP,
Bell at Cambaluc,[],['great'],[],PRODUCT,
Bengal,[' province of'],"['  king of Mien (Burma) and;', '  why Polo couples these;', '  relations between Burma and;', '  claim asserted by king of Burma to;', '  alleged Mongol invasion of;', '  its distance from Caugigu;', '  its currency;', '  confused with Pegu by Polo']",['Bangala'],GPE,
Berard,"[' Thos.', ' Master of the Temple']",[],[],PERSON,
Bettelar,[' rendezvous of Pearl Fishers'],[],[],LOC,
Beyamini,[' wild oxen of Tibet'],"['  in East Tibet;', '  Burma;', '  in Bengal;', '  Anin;', '  worshipped;', '  figures of, worn']",['wild Oxen'],PRODUCT,
Bezant,[''],['value of'],['Dinar'],MONEY,
Birch-bark vessels,[''],['books'],[],PRODUCT,
Bird-hunts,[],[],[],OTHERS,
Birthday,"["" celebration of Kublai's""]",[],[],OTHERS,
Bitter bread,[],[],[],PRODUCT,
Bitter water,[],[],[],PRODUCT,
Black Crane,[],[],['Kara Togorue'],PRODUCT,
Black Saints,[' White Devils in India'],[],[],OTHERS,
Black Sea,[' M. Maurum v. Nigrum'],[],['Euxine'],LOC,
Black Sect,['of Tibet'],[],[],OTHERS,
Blood-sucking,[' Tartar'],[],[],OTHERS,
Boar's tusks,[' huge (Hipp.)'],[],[],PRODUCT,
Boga,"[' a great Mongol officer', ' delivers Arghun']",[],['Buka'],PERSON,
Bokhara,[],[],['Bocara'],GPE,
Bolgana,[' Queen'],[],['Bulughan'],PERSON,
Bolghar,[' Russia leather'],[],"['borgal', 'borghal']",GPE,
Boniface VIII.,[' Pope'],[],[],PERSON,
Bonoccio di Mestro,[],[],[],PERSON,
Bonpos,[' old Tibetan Sect'],[],[],OTHERS,
Bonus,[' ebony'],[],[],PRODUCT,
Borneo,[' camphor'],[],[],GPE,
Boro Bodor,"[' Buddhist Monument', ' Java']",[],[],FAC,
Borrak,"[' Amir', ' Prince of Kerman (Kutlugh Sultan?)']",[],[],PERSON,
Boxwood forests in Georgia,[],[],[],LOC,
Bozzi,[],[],[],PERSON,
Bracelets,[' in Anin'],[],[],PRODUCT,
Bragadino,"[' Marco', "" husband of Marco Polo's daughter"", ' Fantina']",[],[],PERSON,
Bragadino Pietro,[],[],[],PERSON,
Brahmanical thread,[],[],[],OTHERS,
Bran,[' parched barley'],[],['Tibetan tsamba'],PRODUCT,
Brazil wood,[''],"[' in Locac', '  in Sumatra;', '  manner of growth;', '  in Ceylon;', '  in Coilum (_Coilumin_);', '  different kinds;', '  vicissitudes of the word;', ""  its use prohibited by Painters' Guild""]",[],PRODUCT,
Bread,[' bitter'],[],[],PRODUCT,
Bridges of Pulisanghin,[''],"[""  Sindafu (Ch'engtu);"", '  Suchau;', '  Kinsay;', '  Kien-ning fu;', '  Fuchau;', '  Zayton, or Chinchau']",[],PRODUCT,
Brine-wells,"[' mountains of', 'Salt']",[],[],PRODUCT,
Brius River,[],[],"['Kinsha Kiang', ' Gold River']",LOC,
Brown,[' G.G'],[],[],PERSON,
Bucephalus,[' breed of'],[],[],PRODUCT,
Buckram,"[' of Arzinga', '']","['  described;', '  etymology;', '  at Mardin;', '  in Tibet;', '  at Mutfili;', '  Malabar']",['Bouqueran'],PRODUCT,
Buddha,[],[],['Sakya Muni'],PERSON,
Buddhism,"[' Buddhists', ' Idolaters']",[],['Idolatry'],OTHERS,
Buffaloes,['in Anin'],[],[],PRODUCT,
Buffet and vessels of Kublai's table,[],[],[],PRODUCT,
Bularguji,[],"['The Keeper of Lost Property""']",['Bularguchi'],PERSON,
Bundukdari,"[' Malik Dahir Ruknuddin Bibars', ' Mameluke Sultan']","['of Egypt,', ' killed by kumiz']",['Bendocquedar'],PERSON,
Caaju,[' castle of'],[],[],FAC,
Cacanfu,[],[],['Hokiang-fu'],GPE,
Cachanfu,[],[],"[""P'uchau-fu"", 'Ho-chung-fu']",GPE,
Cachar Modun,[],[],[],LOC,
Caesarea of Cappadocia,[],[],"['Casaria', ' Kaisariya']",GPE,
Caichu,"[' castle of (Kiai-chau', ' or Hiai-chau?)']",[],[],GPE,
Caidu,"['a powerful chief of Turkestan', "" Kublai's cousin and life-long opponent"", '']","['Rebels against Kublai', 'His battles', ' and invasion of Karakorum', 'His death', 'Exploits of his daughter Aigiarm', '  plots with Nayan;', '  his differences with Kublai;', '  and constant aggressions;', '  his death;', '  his victorious expedition _v._ Kublai;', ""  Kublai's resentment;"", ""  his daughter's valour;"", '  sends a host _v._ Abaga']",['Kaidu'],PERSON,
Caiju,[' on the Hwang-Ho'],[],[],GPE,
Caiju,['Caiju on the Kiang'],[],['Kwachau'],GPE,
Cail,[''],"['  a great port of Commerce;', '  the king;', '  identified;', '  meaning of name;', '  remains of']","['Kayal', 'Kail']",GPE,
Caindu,[' a region of Eastern Tibet'],[],"[""K'ien-ch'ang""]",GPE,
Cala Ataperistan,['Castle of the Fire Worshippers'],"['Fire-Worshippers""]","[""Kala' Atishparastan""]",GPE,
Calachan,[],[],['Kalajan'],GPE,
Calaiate,[ ' a city at the entrance of the Persian Gulf'],"['  described;', '  idiom of']","['Calatu','Kalhat', 'Kalhatu']",GPE,
Calendar,"[' Ecclesiastical Buddhist', '']","['  the Tartar;', '  of Brahmans;', '  of Documents relating to Marco Polo and his family']",[],PERSON,
Camadi,['City of Dakianus'],[],[],GPE,
Cambaluc,"[' capital of Cathay', '']","[""  Kublai's return thither after defeating Nayan;"", '  the palace;', '  the city;', '  its size, walls, gates, and streets, the Bell Tower, etc.;', ""  period of khan's stay there;"", '  its suburbs and hostelries;', '  cemeteries, women, patrols;', '  its traffic;', ""  the Emperor's Mint;"", '  palace of the Twelve Barons;', '  roads radiating from;', '  astrologers of']","['Khanbaligh', 'Peking', 'Kambalu']",GPE,
Cambay,[' kingdom of'],[],"['Cambaet', ' Cambeth', ' Kunbayat', 'Camabaia']",GPE,
Camel-bird,[],[],['Ostrich'],PRODUCT,
Camels,"[' mange treated with oil', '']","['  camlets from wool of;', '  white;', '  incensing;', '  alleged to be eaten in Madagascar;', '  really eaten in Magadoxo;', '  ridden in war']",[],PRODUCT,
Camexu,[' city of'],[],"['Kamichu', 'Campichu', 'Kanchau']",GPE,
Camlets,[],[],['cammellotti'],PRODUCT,
Camphor,[],[],['Laurus Camphora'],PRODUCT,
Camphor of Sumatra,[''],"['  Fansuri;', '  earliest mention of:', '  superstitions regarding;', '  description of the tree, _Dryabalanops Camphora_;', '  value attached by Chinese to;', '  recent prices of;', '  its use with betel']",[],PRODUCT,
Camphor oil,[],[],[],PRODUCT,
Camul,[' province'],[],"['Kamul', 'Komal', 'Khamil', 'Hami']",GPE,
Camut,[' fine shagreen leather'],[],[],PRODUCT,
Canal,"[' Grand', ' of China']",[],[],FAC,
Canale,"[' Cristoforo', ' MS. by', ' Martino da', ' French Chronicle of Venice by']",[],[],PERSON,
Canes,"["" Polo's name for bamboos""]",[],[],PRODUCT,
Cannibalism,[''],"[' ascribed to Tibetans, Kashmiris, etc;', ' to Hill-people in Fo-kien;', ' to islanders in Seas of China and India;', ' in Sumatra;', ' regulations of the Battas;', ' ascribed to Andaman islanders']",[],OTHERS,
Canton,[],[],[],GPE,
Cape Corrientes,[],[],['Cape of Currents'],LOC,
Cape Delgado,[],[],[],LOC,
Cape of Good Hope,[],[],[],LOC,
Caracoron,[],[''],"['Kara Korum', 'Karakorum']",GPE,
Carajan,"[' province', ' province of']",[],"['Karajang', 'Yun-nan', 'Caraian', 'Talifu']",GPE,
Caraonas,[' a robber tribe'],[],['Karaunahs'],NORP,
Carpets,[''],"['  of Turcomania (Turkey);', '  Persian;', '  Kerman']",[],PRODUCT,
Carriages,[''],"['  at Kinsay;', '  Chinese']",[],PRODUCT,
Cascar,[''],['  _Chaukans_ of'],['Kashgar'],GPE,
Casem,[' an island in the Persian Gulf'],[],"['Kishm', 'chisi ']",GPE,
Caspian Sea,[''],"['  ancient error about;', '  its numerous names']","['Sea of Ghel', 'Sea of Ghelan', 'Sea of Sarai']",LOC,
Cassay,[],[],['Kinsay'],GPE,
Castaldi,"[' Panfilo', ' his alleged invention of movable types']",[],[],PERSON,
Casvin,[' a kingdom of Persia'],[],['Kazvin'],GPE,
Catalan Navy,[],[],[],NORP,
Cathay,[''],"['  origin of name;', '  coal in;', '  idols;', '  Cambaluc, the capital of, _see_ Cambaluc;', '  Cathayans, v. Ahmad;', '  their wine;', '  astrologers;', '  religion;', '  politeness, filial duty, gaol deliveries, gambling']","['Northern China', 'Kataia']",GPE,
Catholics,[''],"['  Catholicos, of Sis;', '  of the Nestorians']",[],OTHERS,
Cators,[' great partridges'],[],['chakors'],PRODUCT,
Caugigu,[' province'],[],[],GPE,
Caulking,[' of Chinese ships'],[],[],PRODUCT,
Cauly,[],[],"['Kauli', 'Corea']",GPE,
Cave-houses,[],[],[],PRODUCT,
Cayu,[],[],['Kao-yu'],GPE,
Census,"[' of houses in Kinsay', '']",['  tickets'],[],OTHERS,
Ceremonial of Mongol Court,[],[],['Etiquette'],OTHERS,
Chachan,[''],[],"['Charchan', 'Charchand']",GPE,
Chagatai,"["" Kublai's uncle"", ' son of Chinghiz']",[],['Sigatay'],PERSON,
Chagan Nor,"[' N.E. of Kamul', "" site of Kublai's palace""]",[],"[""White Lake"", 'Chaghan', 'Tsaghan Balghasun']",LOC,
Chairs,[' silver'],[],[],PRODUCT,
Chalcedony and jasper,[],[],[],PRODUCT,
Champa,"[' kingdom of', '']","[""  Kublai's expedition;"", '  the king and his wives;', '  products;', '  locality;', '  invaded by king of Lukyn']","['Chamba', 'Sanf', 'Zampa']",GPE,
Chandu,"[' a city of Tartary', 'city of peace of Kublai']","[""  Kublai's City and Summer Palace;"", ""  Dr. Bushell's description of;"", ""  Kublai's annual visit to""]","['Shangtu', 'Sandu', ' Shangdu']",GPE,
Changan,[],[],[],GPE,
Changchau,[],[],['Chinginju'],GPE,
Changchau in Fokien,[''],"[' Zayton (?);', ' Christian remains at']",[],GPE,
Changshan,[],[''],['Chanshan'],GPE,
Charchan,[],[],"['Chachan', ' Charchand']",GPE,
Charities,"["" Kublai's"", '']","['  Buddhistic and Chinese;', '  at Kinsay']",[],OTHERS,
Chaukans,[' temporary wives at Kashgar'],[],[],PERSON,
Cheapness in China,[],[],[],OTHERS,
Cheetas,[' or hunting leopards'],[],[],PRODUCT,
Cheinan,[' Gulf of'],[],[],GPE,
Chenchu,[' conspires with Vanchu _v._ Ahmad'],[],['Chang-y'],PERSON,
Chengting fu,[],[],[],GPE,
Chengtufu,[],[],['Sindafu'],GPE,
Chibai,[],[],[],PERSON,
Chiban,[],[],[],PERSON,
Chin,[' Sea of'],[],[],GPE,
China,"['', ' its greatness and civilisation']","[' _Imperial Maritime Customs Returns for 1900_;', ' Dominicans in;', ' paved roads in;', ' relations with Korea and Japan;', ' the name;', ' king of Malacca at Court of;', ' trade from Arabia to;', ' from Sofala in Africa', 'Religion and Customs of the Chinese']",[],GPE,
Chinangli,[],[],"[""T'sinan-fu""]",GPE,
Chinchau,[],[],[],GPE,
Chincheo,[],[],[],GPE,
Chinchew,[],[],[],GPE,
Chwanchew,[],[],[],GPE,
Tswanchau,[],[],[],GPE,
Chinese,[''],"['  Polo ignorant of the languages;', '  epigrams;', '  funeral and mourning customs;', '  feeling towards Kublai;', '  religion and irreligion;', '  their politeness and filial piety;', '  gambling;', '  character for integrity;', '  written character and varieties of dialect;', '  ships;', '  pagodas at Negapatam and elsewhere;', '  coins found in Southern India;', '  pottery;', '  trade and intercourse with Southern India']",[],LANGUAGE,
Chinghianfu,[],[],['Chinkiang-fu'],GPE,
Chinghiz,[''],"['  reported to be a Christian;', ""  Aung Khan's saying of;"", '  his use of Uighur character;', '  Erzrum taken by;', '  harries Balkh;', '  captures Talikan;', '  ravages Badakhshan;', '  his respect for Christians;', '  subjugates Kutchluk Khan;', '  his campaigns in Tangut;', ""  Rubruquis' account of;"", '  made king of the Tartars;', '  his system of conquests;', '  and Prester John;', '  divining by twigs--presage of victory;', '  defeats and slays Prester John;', '  his death and burial-place;', '  his aim at conquest of the world;', '  his funeral;', '  his army;', '  defeats the Merkits;', ""  relations between Prester John's and his families;"", '  the Horiad tribe;', '  his prophecy about Kublai;', '  rewards his captains;', '  captures Peking;', '  defeats and slays Taiyang Khan;', '  his alleged invasion of Tibet;', '  his mechanical artillery;', '  his cruelty;', '  Table of Genealogy of his House']",['Temujin'],PERSON,
Chingintalas,"[' province', '']",['  its identification'],[],GPE,
Chingkim,"[' Chinkin', ' Chimkin', "" Kublai's favourite son and heir-apparent"", '']",[' his palace'],[],PERSON,
Chingsang,"[' Ching-siang (Chinisan)', ' title of a Chief Minister of State']",[],[],PERSON,
Chingtingfu,[],[],"['Acbaluc', 'Acbalec']",GPE,Zhengding
Chinju,[],[],['Tinju'],GPE,
Chipangu,"['', ' expedition of Kublai against', ' invasion of by Kublai', ' how frustrated']","[""  account of Kublai's expedition _v._;"", '  its disasters;', '  history of expedition;', '  relations with China and Korea', 'Idolatry and cruelty of the nuhabitants']","['Japan', 'zipangu ']",GPE,
Chochau,[],[],['Juju'],GPE,
Choiach,[' the term'],[],['Tjajya'],TIME,
Chonka,"[' kingdom of', '', ' province of', ' uncivilized tribes in']",[' explanation of name'],['Fokien'],GPE,
Christian,['astrologers'],"['  churches in China, early;', '  inscription of Singanfu;', '  Alans in the Mongol service']",[],NORP,
Christianity,"[' attributed to Chinghizide princes', '']","["" Kublai's views on""]",[],OTHERS,
Christianity former,[' of Socotra'],[],[],OTHERS,
Chughis,[],[],['Jogis'],PERSON,
Churchin,"['Niuche, Chinese name for the Churches or race of Kin Empire', ' Chorcha (the Manchu Country)']",[],"[' Niuche', ' Churche', ' Chorcha']",GPE,
Cinnamon,"[' Tibet', '']","['  Caindu;', '  Ceylon;', '  story in Herodotus of;', '  Malabar']",[],PRODUCT,
Circumcision of Socotrans,[''],"['  forcible, of a bishop;', '  of Abyssinians']",[],OTHERS,
Clement IV.,[' Pope'],[],[],PERSON,
Cloves,[''],['  in Caindu'],[],PRODUCT,
Coal,"[""Polo's blackstone""]","['  in Scotland in Middle Ages;', '  in Kinsay']",[],PRODUCT,
Cobbler,"[' the one-eyed', ' and the miracle of the mountain']",[],[],PERSON,
Cobinan,[],[],"['Koh-Banan', 'Cobinam', 'Khubees']",GPE,
Cocachin,[' the Lady'],[],['Kukachin'],PERSON,
Coco-nut,[],[],['Indian nut'],PRODUCT,
Coffins,[],"['Chinese, in Tangut']",[],PRODUCT,
Cogachin,"["" Kublai's son"", ' King of Carajan']",[],['Hukaji'],PERSON,
Cogatai,[],[],['Kogatai'],PERSON,
Cogatal,[' a Tartar envoy to the Pope'],[],[],PERSON,
Coiganju,[],[],"['Hwaingan-fu', 'Koi-gan-zu']",GPE,
Coilum,"[' kingdom of', '']","[' identity of meaning of name;', ' Church of St. George at;', ' modern state of;', "" Kublai's intercourse with""]","[' Kaulam', ' Quilon', 'Kollam', 'Colon', 'Columbum']",GPE,
Coilumin,"[' _columbino', ' colomni_', ' so-called Brazil-wood', '']",[' ginger'],['Colombino'],PRODUCT,
Coja,[' Tartar envoy from Persia to the Khan'],[],['Koja'],PERSON,
Cold,"[' intense', ' in Kerman', '']",['  in Russia'],[],OTHERS,
Coloman,[' province'],[],['Tholoman'],GPE,
Colossal Buddhas,[' recumbent'],[],[],PRODUCT,
Comania,[],[],['Comanians'],NORP,
Comari,[' Kumari'],['  temple at'],"['Comori', 'Cape Comorin', ' Travancore', 'Kumhari',  ' Kumari'’]",GPE,
Comercque,"["" Khan's custom-house""]",[],[],NORP,
Compartments,[' in hulls of ships'],[],[],OTHERS,
Compass,"["" Mariner's""]",[],[],PRODUCT,
Conchi,[' King of the North'],[],[],PERSON,
Concubines,[' how the Khan selects'],[],[],NORP,
Sondur,[],[],[],LOC,
Condur,[],[],[],LOC,
Conia,['Coyne (Iconium)'],[],"['Coyne', 'Iconium']",GPE,
Conjurers,"[' the Kashmirian', '']","['  weather-;', ""  Lamas' ex-feats""]",[],NORP,
Constantinople,[''],['  Straits of'],[],GPE,
Convents,[],[],['Monasteries'],FAC,
Copper,"[' token currency of Mahomed Tughlak', '']","['  imported to Malabar;', '  to Cambay']",[],PRODUCT,
Coral,"[' valued in Kashmir', ' Tibet', ' etc']",[],[],PRODUCT,
Corea,[],[],['Kauli'],GPE,
Corn,"["" Emperor's store and distribution of""]",[],[],PRODUCT,
Coromandel,"['i.e. Coromandel coast', '  province of India;', ' a province in the south of India']","['  its brother kings;', '  pearl fishery;', '  etymology;', '  limits;', '  obscurity of history;', '  port visited by Polo;', '  nakedness of people, king, his jewels;', '  his wives, ""Trusty Lieges,"" treasure;', '  horses imported;', '  superstitious customs;', '  ox-worship;', '  Govis, Ib.;', '  no horses bred;', '  other customs;', '  mode of arrest for debt;', '  great heat;', '  regard for omens;', '  astrology, treatment of boys;', '  birds, girls consecrated to idols;', '  customs in sleeping;', '  ships at Madagascar', 'The gulf between it and Ceylon', ' rich in pearls', 'Its Hindoo customs and superstitions', 'Manners and social condition of the inhabitants']","['Maabar', 'Mabar']",GPE,
Corsairs,[],[],['Pirates'],NORP,
Corte del Milione,[],[],"[""Ca' Polo""]",LOC,
Corte Sabbionera,['at Venice'],[],[],LOC,
Cosmography,[' mediaeval'],[],[],OTHERS,
Cotton,"[' stuffs of', '']","[' at Merdin;', ' in Persia;', ' at Kashgar;', ' Yarkand;', ' Khotan;', ' Pein;', ' Bengal;', ' bushes of gigantic size']",[],PRODUCT,
Cow-dung,[' its use in Maabar'],[],[],PRODUCT,
Cowries,"[' 'porcelain shells, pig shells', ' used for money', ' etc.', '']",[' procured from Locac'],['Porcelain shells'],MONEY,
Cramoisy,[],[],['quermesis'],PRODUCT,
Cranes,[' five kinds of'],[],[],PRODUCT,
Cremation,[''],['  in Middle Ages'],[],OTHERS,
Cremesor,[' Hot Region (Garmsir)'],[],['Garmsir'],GPE,
Cross,"[' legend of the Tree of the', '']","[""  gibes against, on Nayan's defeat;"", '  on monument at Singanfu']",[],PRODUCT,
Crossbows,[],[],[],PRODUCT,
Cubeb pepper,[],[],[],PRODUCT,
Cubits,[' astronomical altitude estimated by'],[],[],PRODUCT,
Cudgel,"["" Tartars' use of""]",[],[],PRODUCT,
Cuiju,[' province'],[],['Kwei-chau'],GPE,
Cuju,[],[],[],GPE,
Cuncun,[],[],['Han-Chung'],GPE,
Cunningham,[' General A'],[],[],PERSON,
Cups,[' flying'],[],[],PRODUCT,
Currency,"[' copper token', ' in India', '']","['  salt;', '  leather;', '  Cowrie']",[],OTHERS,
Currency,"[' paper', ' in China', '']","[' attempt to institute in Persia;', ' alluded to']",[],OTHERS,
Curzola Island,"['Genoese victory at,']","[""  Polo's galley at;"", '  map of']",[],LOC,
Curzon,"[' Lord', '']",['  list of Pamirs'],[],PERSON,
"Curzon, Hon. R.",[' on invention of printing'],[],[],PERSON,
Customs,[' Custom-houses'],[],[],OTHERS,
Cycle,[' Chinese'],[],[],OTHERS,
Cynocephali,[' the'],[],[],OTHERS,
Dagroian,"[' kingdom of', ' in Sumatra', '']",['  probable position of'],[],GPE,
Dalivar,['a province of India'],[],"['Dilivar', ' Dilawar', 'Lahore']",GPE,
Damascus,[''],['  siege of'],[],GPE,
Dancing girls,[' in Hindu temples'],[],[],NORP,
Dandolo,"[' Andrea', ' Admiral of Venetian fleet at Curzola', '']","[' his captivity and suicide;', ' funeral at Venice']",[],PERSON,
D'Anghieria,[' Pietro Martire'],[],[],PERSON,
Dante,"[' number of MSS.', '']","[' does not allude to Polo;', ' _Convito_']",[],PERSON,
Darius,[''],['  the Golden King'],[],PERSON,
Darkness,[' magical'],[],[],OTHERS,
land of Darkness,[''],"['  how the Tartars find their way out;', '  the people and their peltry;', ""  Alexander's legendary entrance into;"", '  Dumb trade of']",[],GPE,
Dasht-i-Lut,[],[],['Desert of Lut'],LOC,
D'Avezac,[' M'],[],[],PERSON,
David,[' king of Georgia (Dawith)'],[],[],PERSON,
Dead,"[' disposal of the', ' in Tangut', '']","['  at Cambaluc;', '  in Coloman;', '  in China;', '  in Dagroian;', '  by the Battas']",[],OTHERS,
Debt,[' singular arrest for'],[],[],OTHERS,
Decima,[' or Tithe on bequest'],[],[],PERSON,
D'Ely,[' Mount'],[],['Eli'],LOC,
Deserts,[' haunted'],[],[],LOC,
Devil-dancing,[],[],[],OTHERS,
Devils,[' White'],[],[],OTHERS,
Dhafar,[' a seaport of Arabia'],"[' its incense;', ' two places of the name']","['Dofar', ' Thafar', 'Zhafar', 'Dufar']",GPE,
Dhulkarnain,['Alex.'],[],['Zulkarnain'],PERSON,
Dialects,[' Chinese'],[],[],OTHERS,
Diamonds in India,"[' how found', '']","['  mines of;', '  diffusion of legend about']",[],PRODUCT,
Divination by twigs or arrows,[],[],[],OTHERS,
Dogana,[''],['  conjectures as to'],[],GPE,
Dog-headed races,[],[],[],NORP,
Dogs,"["" the Khan's mastiffs"", '']","['  of Tibet;', '  fierce in Cuiju']",[],OTHERS,
Dog-sledging in Far North,[''],[' notes on dogs'],[],OTHERS,
Dolfino,"[' Ranuzzo', "" husband of Polo's daughter"", ' Moreta']",[],[],PERSON,
Dominicans,[' sent with Polos but turn back'],[],[],PERSON,
Doria,[' family at Meloria'],[],[],PERSON,
Lampa Doria,[''],"[' Admiral of Genoese Fleet sent to Adriatic;', ' his victory;', ' his tomb and descendants;', ' at Meloria with six sons']",[],PERSON,
Octaviano Doria,[' death of'],[],[],PERSON,
Tedisio Doria,[' exploring voyage of'],[],[],PERSON,
Drawers,"[' enormous', ' of Badakhshan women']",[],[],PRODUCT,
Drums,[' sound of in certain sandy districts'],[],[],PRODUCT,
Duties,"[' on Great Kiang', '']","['  on goods at Kinsay and Zayton;', '  on horses;', '  at Hormuz']",[],OTHERS,
Dutthagamini,[' king of Ceylon'],[],[],PERSON,
Eagles,[' trained to kill large game'],[],[],PRODUCT,
white Eagles,[' in the Diamond Country'],[],[],PRODUCT,
Eagle-wood,[' origin of the name. (_See_ Lign-aloes.)'],[],[],PRODUCT,
Ebony,[],[],['bonus'],PRODUCT,
Edward I,[],[],[],PERSON,
Effeminacy,[' in Chinese palaces'],[],[],OTHERS,
Egrigaia,[' province'],[],['Ninghia'],GPE,
Elchidai,[],[],[],PERSON,
Elephants,"[' Kublai carried on a timber bartizan by four', '']","[""  Kublai's;"", ""  the king of Mien's;"", '  numbers of men alleged to be carried by;', '  how the Tartars routed;', '  wild', '  in Caugigu;', '  Champa;', '  Locac;', '  Sumatra;', '  Madagascar and Zanghibar;', '  trade in teeth of;', '  carried off by the Ruc;', '  in Zanghibar;', '  used in war;', '  an error;', '  Nubian;', '  fable about;', '  not bred in Abyssinia;', '  training of African;', '  war of the']",[],PRODUCT,
Eli,"[' kingdom of', 'Hili-Marawi']",[],"['Ely', 'Dely', ' Elly', 'Hili']",LOC,
Embroidery of silk at Kerman,[''],[' leather in Guzerat'],[],PRODUCT,
Enchanters,[' at Socotra'],[],[],NORP,
Enchantments,[' of the Caraonas'],[],[],OTHERS,
England,"["" Kublai's message to king of"", '']",[' correspondence of Tartar princes with kings of'],[],GPE,
Erba,[' poisonous plant or grass'],[],[],PRODUCT,
Eremites,[' of Kashmir'],[],['Rishis'],NORP,
Erguiul,[' province'],[],[],GPE,
Ermine,[],[],[],PRODUCT,
Esher,['in Madagascar'],"['  trade with India, incense, Ichthyophagi;', '  singular sheep']","[' Es-shehr', 'Shehr', 'Shihr', 'Shaher', 'Escier']",GPE,
Essentemur,"["" Kublai's grandson"", ' king of Carajan']",[],['Isentimur'],PERSON,
Estimo,"[' Venetian', ' or forced loan']",[],[],OTHERS,
Ethiopian sheep,[],[],[],PRODUCT,
Etzina,[],[],['Yetsina'],GPE,
Eunuchs,[''],['  procured from Bengal'],[],NORP,
Euphrates,[''],['  said to flow into the Caspian'],[],LOC,
Faghfur,"[' Emperor of Southern China', 'king of Manji or Southern China']","[' meaning of title;', ' his effeminate diversions;', ' decay of his palace', 'his flight;', '  his charity;', '  his effeminacy;', '  his death;', '  his palace at Kinsay', 'Conquered by Kublai', ' ib', 'Bounty to his subjects']",['Facfur'],PERSON,
Falconers,"["" Kublai's""]",[],[],NORP,
Falcons,"[' of Kerman', '']","['  Saker and Lanner;', '  peregrine;', ""  Kublai's""]",[],PRODUCT,
Fang,[],[],['Squares'],PRODUCT,
Fansur,"[' in Sumatra', ' kingdom of']",[],[],GPE,
Faro,[],[],[],LOC,
Farriers,[' none in S. India'],[],[],NORP,
Fasting days,[' Buddhist'],[],[],DATE,
Fausto,[' Vettor'],[' his Quinquereme'],[],PERSON,
Female attendants on Chinese Emperors,[],[],[],NORP,
Ferlec,"[' in Sumatra', ' kingdom of (Parlak)', '']",[' Hill people'],"[' Perlak', 'Parlak']",GPE,
Festivals,[],"[""Order of the Kaan's""]",[],OTHERS,
Filial Piety in China,[],[],[],OTHERS,
Fiordelisa,[],"[""[' daughter of younger Maffeo Polo', 'supposed to be Nicolo Polo's second wife', 'wife of Felice Polo.']""]",[],PERSON,
Fire,"[' affected by height of Pamir Plain', '']",['  regulations at Kinsay'],[],PRODUCT,
Fire-baptism,[' ascribed to Abyssinians'],[],[],OTHERS,
Fire-worship,"[' or rockets', ' in Persia', '']",['  by the Sensin in Cathay'],[],OTHERS,
Fish miracle in Georgia,[''],"['  in the Caspian;', '  and date diet;', '  supply at Kinsay;', '  food for cattle;', '  stored for man and beast']",[],OTHERS,
Fish-oil,[' used for rubbing ships'],[],[],PRODUCT,
Florin,[''],[],['ducat'],MONEY,
Flour,[' trees producing'],[],['Sago'],PRODUCT,
Formosa,[' Plain (Harmuza)'],[],['Harmuza'],LOC,
Fortune,[' R'],[],[],OTHERS,
Foundlings,[' provision for'],[],[],OTHERS,
Four-horned sheep,[],[],[],PRODUCT,
Fowls with hair,[],[],[],PRODUCT,
Foxes,[' black'],[],[],PRODUCT,
Fracastoro,[' Jerome'],[],[],PERSON,
Francolin,"['darraj of the Persians', ' black partridge']",[],[],PRODUCT,
Frankincense,[],[],['Incense'],PRODUCT,
Fuchau,"['province of', ' uncivilized tribes in']","[' paper-money at;', ' wild hill people of;', ' its identity;', ' language of;', ' tooth relique at']","[' Fuju', 'Fo-kien', 'Fuzo']",GPE,
Funeral rites,[' Chinese'],"['  in Tangut;', '  of the Kaans;', '  at Kinsay']",[],OTHERS,
Fungul,[' city of'],[],[],GPE,
Furs,[' of the Northern Regions'],[],[],PRODUCT,
Galingale,[],[],[],PRODUCT,
Galletti,[' Marco'],[],[],PERSON,
Gambling,[' prohibited by Kublai'],[],[],OTHERS,
Game,[],[],['Sport'],OTHERS,
Game Laws,[' Mongol'],[],[],OTHERS,
Game,[' supplied to Court of Cambaluc'],[],[],OTHERS,
Ganfu,[' port of Kinsay'],[],['Ning-po'],GPE,
Garrisons,"[' Mongol', ' in Cathay and Manzi', '']",['  disliked by the people'],[],NORP,
Gates,"["" of Kaan's palace"", '']","[' of Cambaluc;', ' of Somnath']",[],FAC,
Gat-pauls,[],[],"[' Gatopaul', ' Gatos-paulas']",PRODUCT,
Gauenispola,['Island'],[],"['Gomispola', 'Gomispoda']",LOC,
Gazaria,[],[],[],GPE,
Genoa,"["" Polo's captivity at""]",[],[],GPE,
Genoese,"[' their growth in skill and splendour', '']","['  character as seamen by poet of their own;', '  character by old Italian author;', '  capture of Soldaia;', '  their navigation of the Caspian;', '  trade in box-wood;', '  their merchants at Tabriz;', '  in Fo-kien']",[],NORP,
George,"[' king of Tenduc', '']","['  of the time of Prester John;', '  a possible descendant of']","['Jirjis', ' Yurji', ' Gurgan']",PERSON,
Georgiania,"[' beauty of', '']","['  and its inhabitants;', '  their kings']","['Georgiana', 'Georgia']",GPE,
Gerfalcons,[],['  tablets engraved with'],['Shonkar'],PRODUCT,
Ghazan,"[' son of Arghun', '']","['  his regard for the Polos;', '  marries the Lady Kukachin;', '  his mosque at Tabriz;', '  set to watch the Khorasan frontier;', '  obtains the throne;', '  his object and accomplishments']",['Casan'],PERSON,
Ghel,"[' Sea of', ' Caspian Sea']",[],"['Ghel-u-chelan', 'Ghelan']",LOC,
Ghelle,[' silk of the Gil province'],[],['Gili'],PRODUCT,
Ghiuju,[],[],[],GPE,
Gindanes,[' of Herodotus'],[],[],NORP,
Ginger,[''],"['  Shan-si;', '  Caindu;', '  alleged to grow in Kiangnan;', '  Fuju;', '  Coilum;', '  different qualities and prices of;', '  Ely;', '  Malabar;', '  Guzerat']",[],PRODUCT,
Giraffes,[''],['  mediaeval notices of'],[],PRODUCT,
Girardo,[' Paul'],[],[],PERSON,
Magog,[' name applied to Tartars.'],[],['Mungul'],NORP,
Gog,['Ung and Mungul'],"['  legend of;', '  rampart of;', '  country of;', '  name suggested by Wall of China']",[],NORP,
Gold,"[' Frankincense', ' and Myrrh', ' their mystic meaning']",[],[],PRODUCT,
Gold dust in Tibet,[''],"['  exchanged for salt in Caindu;', '  Brius River;', '  in Kin-shia-Kiang;', '  and nuggets in Carajan;', '  abundant in Yun-nan;', '  Caugigu;', '  Coloman;', '  infinite in Chipangu;', '  in Sea of Chin Islands;', '  dust in Gulf of Cheinan Islands;', '  not found in Java;', '  in Locac;', '  the Malayo-Siamese territories;', '  Sumatra;', '  vast accumulations in South India;', '  imported into Malabar;', '  and into Cambay;', '  purchased in Socotra']",[],PRODUCT,
Gold Teeth,"[' Western Yun-nan', 'a people of W. Yun-nan']","['  identity doubtful;', '  characteristic customs']",['Zardandan'],GPE,
Golden King and Prester John,[' tale of the'],[],[],PERSON,
Golden Horde,['kings of the Ponent'],[],[],PERSON,
Golden Sect of Tibet,[],[],[],OTHERS,
Goshawks,[''],['  black'],[],PRODUCT,
Gothia,[],['  its limit and language'],[],GPE,
Govy,[' a low caste in Maabar'],[],[],NORP,
Grapes in Shan-si,[],[],[],PRODUCT,
Grasso,[' Donato'],[],[],PERSON,
Great Bear,[''],"['  and Little, force of, and application of these epithets']",['Meistre'],PRODUCT,
Greek fire,[],[],[],PRODUCT,
Greeks,"[' in Turcomania', '']","['  and Greek tongue in Socotra;', '  possible relic of']",[],NORP,
Green,[' Rev. D.D'],[],[],PERSON,
Green Mount,[' Cambaluc'],[],[],LOC,
Gregory X,[' Pope'],[],"['Theobald of Piacenza', 'Tedaldo of Piacenza', 'Visconti']",PERSON,
Groat,[],[],['grosso'],MONEY,
Gryphon,[],[],[],PRODUCT,
Gudderi,"[' musk animals', ' Tibet']",[],[],PRODUCT,
Gugal,[],[],['bdellium'],PRODUCT,
Gunpowder,[],[],[],PRODUCT,
Gur-Khan,['of Karacathay'],[],[],PERSON,
Gutturals,[' Mongol elision of'],[],[],OTHERS,
Guz,['=100'],[],[],QUANTITY,
Guzerat,"['', ' a kingdom of India', ' infamous for pirates']","['  products, mediaeval architecture and dress;', '  work']",['Gozurat'],GPE,
Haunted deserts,[],[],[],LOC,
Hawks,"[' hawking in Georgia', '']","[' Yezd and Kerman;', ' Badakhshan;', ' Etzina;', ' among the Tartars;', ' on shores and islands of Northern Ocean', "" Kublai's sport at Chagannor;"", ' in mew at Chandu;', ' trained eagles;', "" Kublai's establishment of;"", ' in Tibet;', ' Sumatra;', ' Maabar']",[],PRODUCT,
Hayton I.,"[' king of Lesser Armenia', '']",['  his autograph'],['Hethum'],PERSON,
Heat,"[' great at Hormuz', '']",['  in India'],[],OTHERS,
Hemp of Kwei-chau,[],[],[],PRODUCT,
Hereditary trades,[],[],[],OTHERS,
Hermits,[' of Kashmir'],[],[],NORP,
Hill-people,"[' wild', ' of Fo-kien']",[],[],NORP,
Hindu character,[' remarks on frequent eulogy of'],[],[],OTHERS,
Hindu Kush,[],[],[],LOC,
Hormuz,[''],"['  trade with India;', '  a sickly place;', ""  the people's diet;"", '  ships;', '  great heat and fatal wind;', '  crops, mourning customs;', '  the king of;', '  another road to Kerman from;', '  route from Kerman to;', '  site of the old city;', '  foundation of;', '  history of;', '  merchants;', '  horses exported to India from;', '  the Melik of']","['Curmosa', 'Hormos']",GPE,
Horoscopes,[''],"[' in China', '  in Maabar']",[],OTHERS,
Horse-posts and Post-houses,[],[],[],OTHERS,
Horses,"[' Turkish', '']","[' Persian;', ' of Badakhshan, strain of Bucephalus;', "" sacrificed at Kaans' tombs;"", ' Tartar;', ' and white mares;', "" presented to Kaan on New Year's Day;"", ' of Carajan;', ' their tails docked;', ' of Anin;', ' tracking by;', "" decorated with Yaks' tails;"", ' now bred in S. India']",[],OTHERS,
Horses great trade and prices,['mporting to India from Persia'],"['  modes of shipment;', '  from Carajan;', '  from Anin;', '  from Kis, Hormuz, Dofar, Soer, and Aden;', '  Esher;', '  Dofar;', '  Calatu']",[],OTHERS,
duty on Horses,[''],"['  captured by pirates;', '  their extraordinary treatment and diet in India']",[],OTHERS,
Horse-stealing,[' Tartar laws'],[],[],OTHERS,
Hostelries,"[' at Cambaluc', '']","['  on the Cathay post-roads;', '  at Kinsay']",[],FAC,
Hot springs in Armenia,[''],[' near Hormuz'],[],FAC,
Hours,"[' struck from Cambaluc bell-tower', '']","['  at Kinsay;', '  unlucky;', '  canonical']",[],PRODUCT,
Hulaku,"["" Kublai's brother"", ' and founder of Mongol', ' ruler of Eastern Tartar', ' sends ambassadors to the great khan (Mangou)']","[' dynasty in Persia,', ' war with Barka Khan;', ' takes Baghdad and puts Khalif to death;', ' the Ismailites and the Old Man', 'his treachery', ' his descendants;', ' battle with Barca;', ' his followers']","['Hoolaku', 'Alacan', 'Alau', 'Alacou']",PERSON,
Hundred Eyes,[' prophecy of the'],[],[],PERSON,
Hundwaniy,[' Indian steel'],[],['ondanique'],PRODUCT,
Hunting equipment and Expedition,"["" Kublai's"", '']","[""  Kang-hi's""]",[],PRODUCT,
Hunting preserves,[],[],[],OTHERS,
Ichthyophagous cattle and people,[],[],[],PRODUCT,
Iconium,[' capital of Asia Minor'],[],"['Kuniyah', ' Conia']",GPE,
Idolatry,[''],"['  in Kashmir;', '  their decalogue;', '  Pashai;', '  Tangut;', '  Kamul;', '  Kanchau;', '  Chingintalas;', '  Suhchau;', '  Etzina, their fasting days;', '  Tartars and Cathayans;', '  Erguiul;', '  Egrigaia;', '  Tenduc;', '  Chandu;', ""  at Kublai's birthday feast;"", '  Cachanfu;', '  Kenjanfu;', '  Acbalec Manzi;', '  Sindafu;', '  Tibet;', '  Caindu;', '  Yachi;', '  Carajan;', '  Zardandan;', '  Mien;', '  Caugigu;', '  Coloman;', '  Cuiju;', '  Cacanfu;', '  Chinangli;', '  Sinjumatu;', '  Coiganju;', '  Paukin;', '  Tiju;', '  Nanghin;', '  Chinghianfu;', '  Tanpiju;', '  Chipangu;', '  Chamba;', '  Sumatra;', '  Nicobars;', '  Mutfili;', '  Coilum;', '  Eli;', '  Malabar;', '  Tana;', '  Cambaet;', '  Semenat;', '  Far North']",['Buddhism'],OTHERS,
Origin of Idolatry,[''],"['  of Brahmans;', '  of Jogis']",[],OTHERS,
Idols,"[' Tartar', '']","['  Tangut;', '  colossal;', '  of Cathay;', '  of Bacsi or Lamas;', '  of Sensin;', '  of East generally;', '  in India']",[],OTHERS,
Ilkhan,[' the title'],[],[],PERSON,
Ilyats,[' nomads of Persia'],[],[],NORP,
Incense,"[' Sumatran', '']","[' brown in West India;', ' white (i.e. frankincense), in Arabia']",['Frankincense'],PRODUCT,
India,[''],"['  horse trade to;', '  trade to Manzi or China from;', '  believed to breed no horses;', '  trade with Persia and Arabia;', '  western limits of;', '  islands of;', '  division of;', '  sundry lists of States;', '  trade with Aden and Egypt;', '  with Arabian ports;', '  confusion of Ethiopia and']",[],GPE,
India,[' the Greater'],[],[],GPE,
Lesser India,[],[],[],GPE,
Middle India,[' kingdom of'],"['The inhibitants converted by St Thomas', 'Its king defated the ruler of Adel (Aden) 326', 'Productions of the country']","['Abyssinia', 'abascia ']",GPE,
India Maxima,[],[],[],GPE,
India Tertia,[],[],[],GPE,
India Superior,[],[],[],GPE,
Sea of India,[],[],[],LOC,
Indian drugs to prolong life,[],[],[],PRODUCT,
Indian nuts,[],[],['Cocoa-nuts'],PRODUCT,
Indian steel,[],[],['ondanique'],PRODUCT,
Indies,"[' the Three', ' and their distribution']",[],[],NORP,
Indigo,"[' mode of manufacture at Coilum', '']","['  in Guzerat;', '  Cambay;', ""  prohibited by London Painters' Guild""]",[],PRODUCT,
Indo-China,[''],['  States'],[],GPE,
Irak,[],[],[],GPE,
Irish,[' accused of eating their dead kin'],[],[],GPE,
Iron,"[' in Kerman', '']",['  in Cobinan'],[],PRODUCT,
Iron Gate,"[' said to have been built by Alexander', '']",['  gate ascribed to'],['Derbend Pass'],FAC,
Ivory trade,[],[],[],OTHERS,
Izzuddin Muzaffar,[' suggests paper-money in Persia'],[],[],PERSON,
Jacobite Christians,[],"['at Mosul,', '  at Tauris;', '  Yarkand;', '  perhaps in China']",[],NORP,
Jade stone,[],[],['jasper'],PRODUCT,
Jaffa,"[' Count of', ' his galley']",[],[],GPE,
Jaspar,[' one of the Magi'],[],['Gaspar'],PERSON,
Jatolic,"[' Jathalik', ' Jaselic', ' Gathalik ([Greek: katholikos])']",[],[],NORP,
Java,"[' the Great', '']","[' described;', ' circuit, empires in;', "" Kublai's expedition against""]",[],LOC,
Java,"[' the Less', ' island of']","['See Java', 'Little']",[],LOC,
Jerusalem,[],[],[],GPE,
Jews,"["" their test of Mahomed's prophetic character"", '']","['  shut up by Alexander;', '  their connection with the Tartars;', '  in China, their inscription at Kaifungfu;', '  in Coilum;', '  in Abyssinia']",[],NORP,
Jon,[' River'],[],"['Jihon', 'Oxus']",LOC,
Jugglers,"["" at Khan's feasts"", '']",['  and gleemen conquer Mien'],[],NORP,
Juggling extraordinary,[],[],[],OTHERS,
Juji,[' eldest son of Chinghiz'],[],[],PERSON,
Justice,[' administration of Tartar'],[],[],PERSON,
Kaan,[],['the titles'],['Khan'],OTHERS,
Kachkar,[' wild sheep'],[],['Ovis Vignei'],PRODUCT,
Kaikhatu,"[' Khan of Persia', ' seizes throne', '']","['  his paper-money scheme;', '  his death;', '  his dissolute character']",['Kiacatu'],PERSON,
Kaipingfu,[],[],"['Keibung', ' Kaiminfu', ' Kemenfu']",GPE,
Kajjala,[' a Mongol leader'],[],['Khajlak'],PERSON,
Kamasal,"[' Kahn-i-asal', ' ""The honey canal""']",[],['Conosalmi'],GPE,
Kanat,[' underground stream'],[],['Karez'],FAC,
Karakorum,[],[],['Caracoron'],GPE,
Karamuren,"['River', ' Mongol name for the']",[],"['Caramoran', 'Hwang-ho', ' Yellow River']",LOC,
Kashmir,[''],"[' Buddhism;', ' beauty of the women;', ' conjurers;', ' the language of;', ' sorcery in']","['Keshimur', 'Kesimur', 'Cashmere']",GPE,
Kashmiris,[],[],[],NORP,
Kelinfu,"[' City', ' its bridges']",[],['Kienningfu'],GPE,
Kenjanfu,[],[],['Singanfu'],GPE,
Kerman,[''],"['  route to Hormus from;', '  steel manufacture, its industries;', '  king of, Atabeg of;', '  stitched vessels of;', '  desert of']",[],GPE,
Keshican,"["" Kublai's life-guard""]",[],"['Keshikten', ' Kishikan', ' Kizik', ' Keshikchi', 'Kishik']",PERSON,
Kesmacoran,[''],['  Kij-Makran'],"['Kij Makran', 'Mekran']",GPE,
Khalif,"[""Mosta'Sim Billah of Baghdad""]","['  taken by Hulaku and starved to death;', '  plot _v._ the Christians laid by a former--the miracle of the', '    mountain;', '  becomes secretly a Christian']",['Calif'],PERSON,
Khan-khanan,[' a title'],[],[],PERSON,
Khatun,"[""['title of Khan's wives']""]",[],[],PERSON,
Khitan,[],[],['Khitai'],GPE,
Liao,['Khitan dynasty of'],[],[],GPE,
Khotan,[''],"['  fruits;', '  routes between China and;', '  buried cities of;', '  its jade']",['Cotan'],GPE,
Kiang,"[' the Great (Kian and Kian-Suy, and in its highest course Brius, the Kinsha Kiang)']","[' its vastness, and numerous craft;', ' steamers on;', ' its former debouchure to the south, and changes']","['Kiang-shui', 'Kiang-suy']",LOC,
King of the Abraiaman,[],[],[],PERSON,
Kinsay,['formerly Lin-ngan now Hang-chau fu'],"['  its surrender to Bayan;', '  extreme public security;', '  alleged meaning of the name;', '  described;', '  bridges;', '  hereditary trades, guilds and wealthy craftsmen and their dainty wives;', '  the lake, islands and garden-houses;', ""  stone-towers--inhabitants' clothing and food;"", '  guards and police regulations;', '  fires;', '  alarm towers, paved streets;', '  revenue;', '  pavements, public baths, port of Ganfu;', '  the province and other provinces of Manzi, garrisons;', '  horoscopes, funeral rites;', '  palace of the expelled king;', '  church, house registers;', '  hostel regulations;', '  canals;', '  markets and squares;', '  fruits and fish shops;', '  women of the town, physicians and astrologers, courts of justice;', '  vast consumption of pepper;', ""  inhabitants' character--their behaviour to women and foreigners;"", '  hatred of soldiers;', '  pleasures on the lake and in carriage excursions;', '  palace of the king;', ""  the king's effeminacy and ruin;"", '  tides;', '  plan of;', '  notices by various writers of;', '  wealth of;', '  ships']","['Capital', ' Khansa', ' Khinsa', ' Khingsai', ' Khanzai', 'Cansay', 'Campsay', 'Kin-sai', 'Quin-sai']",GPE,
Kinshan,[],[],['Golden Island'],LOC,
Kipchak,"[' Southern Russia', '']","[' events related by Polo in;', ' sovereigns;', ' people of;', ' extent of empire']",[],GPE,
Kis,"[' island in Persian Gulf', '']","['  merchants;', '  described']","['Kish', ' Kais', 'Kisi', ' Ghes', 'Kenn', ' Kem']",LOC,
Kishm island,[' island in the Persian Gulf'],[],"['Oaracta', 'Brakht']",LOC,
Kneeling oxen,[],[],[],PRODUCT,
Koloman,[],[],['Coloman'],GPE,
Kornish,[],[],"[""K'o-tow"", 'Khen-theu']",OTHERS,
Kubenan,"[' a Kuh-banan ""Hill of the Terebinths or Wild Pistachios""']",[],"['Cobinan', 'Koh-Banan']",GPE,
Kublai,"['Khan', 'Kaan', 'Great Khan'']","['  his envoys meet the two elder Polos;', '  receives and questions the Polos;', '  sends them as envoys to the Pope;', '  his desire for Christian teachers, and for oil from the lamp in the', '  Holy Sepulchre;', '  gives them a Golden Tablet;', '  his reception of the three Polos;', '  sends Marco on an embassy;', '  Marco grows in favour;', '  allows the Polos to depart with Tablets of Authority;', '  rumour of his death;', '  sends a napkin of asbestos to the Pope;', '  his greatness and power;', '  his milk libations;', '  his inscription at Shangtu;', ""  Chinghiz's prophecy;"", '  his lineage, age, and accession;', ""  Nayan's revolt;"", ""  Nayan's defeat and death;"", '  rebukes anti-Christian gibes;', '  returns to Cambaluc;', '  treats four religions with equal respect;', '  his views on Christianity;', '  how he rewards his captains;', '  his PERSONal appearance;', '  his wives and ladies-in-waiting;', '  his palace at Cambaluc;', '  builds Cambaluc city;', '  his bodyguard;', '  order of his feasts;', '  celebration of his birthday;', '  his distribution of robes;', ""  his New Year's feast;"", '  his elephants;', ""  the _K'o-tow_;"", '  adopts Chinese ancestor-worship;', '  his game laws;', '  his hunting establishment;', '  his masters of hounds;', '  how he goes a-hunting;', '  how his year is spent;', ""  Ahmad's influence, oppression, and death;"", '  his treatment of Mahomedans;', '  his mint and paper-money;', '  his purchase of valuables;', '  his twelve great Barons;', '  his posts and runners;', '  remission of taxes;', '  his justice;', '  a tree planter;', '  his store of corn;', '  charity to the poor;', '  his astrologers;', '  gaol deliveries, and prohibition of gambling;', '  his early campaign in Yun-nan;', '  and the king of Mien and Bangala;', ""  Litan's plot;"", '  sends Bayan to invade Manzi;', '  his dealings with Bayan;', ""  satisfied with the Polo's mangonels;"", '  appoints Mar Sarghis governor of Chinghian-fu;', '  the city of Kinsay;', '  his revenue from Kinsay;', '  from Zayton;', '  his expedition against Chipangu (Japan);', '  sends force against Chamba;', '  attempts to gain Java;', '  his death;', '  sends to buy Ceylon ruby;', '  sends for religions of Sakya;', ""  testifies to miraculous powers of Sakya's dish;"", ""  intercourse with Ma'bar;"", '  with Kaulam;', '  missions to Madagascar;', ""  Kaidu's wars with him""]","['Cublay', 'Great Kaan']",PERSON,
Kumar,[],[],['Komar'],PRODUCT,
Kumiz,"["" Mare's milk"", ' Tartar beverage', '']",['  sprinkling of'],"[' kimiz', 'kemiz']",PRODUCT,
Kungurats,[' Kunkurats (Ungrat)'' a Mongol tribe'],[],"['Kunkurats', 'Ungrat']",NORP,
Kunichi,['The Keepers of the Mastiff Dogs'],[],"['Cunichi', 'Chinuchi']",PERSON,
Kuniyah,"[' Iconium', ' Koniah']",[],['Conia'],GPE,
Kurdistan,[],[],['Curdistan'],GPE,
Kurds,[' the'],[],[],NORP,
Kurut,[],[],['Curd'],NORP,
Kuwinji,[],[],['Kaunchi'],PERSON,
Kuyuk Khan,[],[],[],PERSON,
Lac,[],[],"['Olak', 'Lacz', ' Illuk', ' Aulak']",GPE,
Lake Caindu,[],[],[],LOC,
Lake Fanchau,[],[],[],LOC,
Lake Kinsay,[],[],[],LOC,
Lake of Palace at Cambaluc,[],[],[],LOC,
Pleasure parties on Lake,[],[],[],OTHERS,
Lake Talifu,[],[],[],LOC,
Lake Yunnan-fu,[],[],[],LOC,
Lamas of Tibetan Buddhism,[],"['  their superstitions and rites;', '  their monasteries;', '  marriage']",[],NORP,
Lambri,[''],"['  kingdom of;', '  situation of']",[],GPE,
Land of Darkness,[''],['  market in'],[],GPE,
Lanner Falcons,[],[],[],PRODUCT,
Lar,[' a province of India'],[],['Lat-Desa'],GPE,
Latins,[' the term'],[],[],NORP,
Laxities of marriage customs,[],[],[],OTHERS,
Gulf of Layas,[],[],[],LOC,
Leather,[''],['  embroidered mats of Guzerat'],[],PRODUCT,
Leaves,[''],"[' used for plates;', ' green leaves said to have a soul']",[],PRODUCT,
Leopards,[''],"['  taught to sit on horseback;', '  (Cheetas) kept for the Chase by Kublai']",[],PERSON,
Levant,[' term applied by Polo to the kingdom of the Mongol Khans'],[],[],GPE,
Lewis,[],[],['St. Lewis'],PERSON,
Libro d'Oro,[],[],[],OTHERS,
Lign-aloes,[''],"['  etymology;', '  in Sumatra']","['eagle-wood', 'Aloes wood']",PRODUCT,
Linju,[],[],[],GPE,
Lions,[' black'],[],[],PRODUCT,
Lions on the Oxus,[''],[' Chinese notion of'],[],PRODUCT,
Lion's Head Tablets,[],[],[],PRODUCT,
Lire,[' various Venetian'],[],[],MONEY,
Lire of gold,[],[],[],MONEY,
Litan,[' rebellion of'],[],[],PERSON,
Livre des Merveille,[],[],[],WORK_OF_ART,
Livres,[],[],[],MONEY,
Livres Parisis,[],[],[],MONEY,
Livres Tournois,[],[],[],MONEY,
Lob,"[' city', ' desert', ' and lake of']",[],['Lop'],GPE,
Locac,[' kingdom of'],[],"['Lochac', 'Camaboia']",GPE,
Great Desert of Lop,"[' city and lake', '']",['  desert'],[],LOC,
Low castes,[],[],[],NORP,
Luristan,[''],"['  kingdom of Persia;', '  Great and Little;', '  character of Lurs or people of']","[' Lur', 'Lor']",GPE,
Lut,[' Desert of (Dasht-i-Lut)'],[],[],LOC,
Lynxes,"[' trained to hunt', '']",['  in Cuncun'],[],PRODUCT,
Maestro,"[' or Great Bear', ' said to be invisible in Sumatra']",[],[],PRODUCT,
Magi,"[' the three', '']","[""  legend as told by Mas'udi;"", '  source of fancies about;', '  names assigned to']",[],PERSON,
Magical darkness,['dry fog and dust storms'],[],[],OTHERS,
Mahomed,[''],"['  his account of Gog and Magog;', '  his Paradise;', '  his alleged prophecy of the Mongols;', '  his use of mangonels']",['Mahommet'],PERSON,
Mahomedans,"['', ' their wicked principle']","['  in Turcomania;', '  in and near Mausul;', '  their universal hatred of Christians;', '  in Tauris;', '  in Persia;', '  their hypocrisy about wine;', '  at Yezd;', '  Hormuz;', '  Cobinan;', '  Tonocain;', '  Sapurgan;', '  Taican;', '  Badakhshan,', '  Wakhan, etc.;', '  Kashgar;', '  strife with Christians in Samarkand;', '  Yarkand;', '  Khotan;', '  Pein;', '  Charchan;', '  Lop;', '  Tangut;', '  Chingintalas;', '  Kanchau;', '  Sinju;', '  Egrigaia;', '  Tenduc, their half-breed progeny;', '  in northern frontier of China, alleged origin of:', '  their gibes at Christians;', ""  Kublai's dislike of;"", '  in Yun-nan;', '  in Champa;', '  in Sumatra;', '  troops in Ceylon;', ""  pilgrims to Adam's Peak;"", '  honour St. Thomas;', '  in Kesmacoran;', '  in Madagascar;', '  in Abyssinia;', '  in Aden;', '  outrage by;', '  at Esher;', '  Dufar;', '  Calatu;', '  Hormuz;', '  Ahmad Sultan one', 'Hatred of the Christians']",['Saracens'],NORP,
Makdashan,[],[],['Magadoxo'],GPE,
Malabar,[' a kingdom of Southern India'],"['  fleets;', '  products;', '  imports, Chinese ships in']","[' Melibar', ' Malibar', ' Manibar']",GPE,
Malaiur,[' island and city'],[],[],GPE,
Malpiero,[' Gasparo'],[],[],PERSON,
Malte-Brun,[],[],[],PERSON,
Mangalai,"[' third son of Kublai', '']",[' his palace'],[],PERSON,
Mangu,"[' Khan', '']","["" Kublai's elder brother;"", ' his death;', ' reign;', ' massacre at his funeral']","['Mangku', 'Mongu', 'Mongon']",PERSON,
Mangu-Temur,[],[],"['Mungletemur', 'Mongo-Temur', 'Mungul-Temur']",PERSON,
Manjanikis,[],[],"['Mangonellas', 'Mangonellers']",NORP,
Manji,[],"['  White City of the Frontier;', '  entrance to;', '  conquest of;', '  character of the people;', '  its nine kingdoms, 1200 cities and squares;', '  its bamboos;', '  no sheep in;', '  dialects;', '  called Chin;', '  ships and merchants in India,', '---- queen of,', '  surrenders;', '  her report of Kinsay']",['Manzi'],GPE,
Manufactures,"["" Kublai's""]",[],[],OTHERS,
Mapillas,[],[],['Moplahs'],NORP,
Mar Sarghis,[],[],[],PERSON,
Masalak-al-Absar,[],[],[],PERSON,
Mastiff Dogs,[' Keepers of the'],[],[],PRODUCT,
Mastiffs of Tibet,[' hunting'],[],['Dogs'],PRODUCT,
Matchlocks,"[' manufacture at Kerman', '']",['  at Taianfu'],[],PRODUCT,
Mati Dhivaja,[],[],['Bashpah Lama'],PERSON,
Mauro,"[' Fra', ' his map']",[],[],PERSON,
Mausul,"[' kingdom of', ' Kingdom of']","['Inhabited by various races', 'An emporium for the commerce of Central Asia', ' ib']",['Mosul'],GPE,
Melchior,[' one of the Magi'],[],[],PERSON,
Melic,[' the title'],[],[],PERSON,
Melons,"[' dried', ' of Shibrgan']",[],[],PRODUCT,
Menjar,[],[],['Majar'],GPE,
Merkit,[' a Tartar tribe'],[],"[' Mescript', 'Mecrit']",NORP,
Mikado,[],[],[],PERSON,
Milk,"[' portable', ' or curd']",[],[],PRODUCT,
Milk,"["" rite of sprinkling Mare's""]",[],[],PRODUCT,
Million,[' use of the numeral'],[],[],QUANTITY,
Millione,"[' Millioni', ' nickname for Polo and his book']",[],[],WORK_OF_ART,
Minever,[],[],['Menuvair'],PRODUCT,
Mingan,"["" Khan's Master of Hounds""]",[],[],PERSON,
Mint,"["" the Khan's""]",[],[],FAC,
Monasteries of Idolaters,[],[],['Buddhists'],FAC,
Money,[' paper'],[],[],MONEY,
Mongol conquests,[''],"['  capture Soldaia;', '  Bolghar;', '  treachery and cruelty;', '  their inroads;', '  Bakh city;', '  invade Balakhshan;', '  invasion of Poland and Silesia']",[],OTHERS,
Mongotay,[' a Mongol officer'],[],['Mangkutai'],PERSON,
Monkeys,[''],['  passed off as pygmies'],[],PRODUCT,
Monks,[' idolatrous. (_See_ Monasteries.)'],[],[],NORP,
Mosolin,[' Arab Maucili'],[],"[' Muslin', 'Mosolini', ' Mo-sze']",NORP,
Mosta'sim Billah,"[' last Abbaside Khalif of Baghdad', '']",[' story of his avarice and death'],[],PERSON,
Mount,"[' Green', ' in Palace grounds at Peking']",[],[],LOC,
Mount St Thomas,[],[],[],LOC,
Mount D'Ely,[],[],"[""Monte d'Ely""]",LOC,
Mountain Road in Shensi,[' extraordinary'],[],[],FAC,
Mourning customs,[''],"[' at Hormuz;', ' in Tangut;', ' at Kinsay']",[],PRODUCT,
Muang,"[' term applied in Shan countries (Laos and W. Yunnan) to fortified', 'town']",[],['Maung Maorong'],GPE,
Muang-Chi,[],[],[],GPE,
Muang Shung,[],[],[],GPE,
Muang Yong,[],[],[],GPE,
Mulahidah,[' epithet of Ismaelites'],[],"[' Alamut', ' Mulahi', 'Mulehet']",GPE,
Mulberry Trees,[],[],[],PRODUCT,
Mus,[],[],"[' Merdin', 'Mush', ' Mardin']",GPE,
Musk,[' animal (Moschus)'],[],[],PRODUCT,
Mutfili,[''],"['  its diamonds;', '  identified']",['Motapalle'],GPE,
Mystic number,[],[],['Numbers'],OTHERS,
Nac,[' a kind of brocade'],[],"[' Nasich', ' Naques', 'Nakh']",PRODUCT,
Nakkara,"[' Nacaires)', ' the great kettledrum signalling action']",[],['Naccar'],PRODUCT,
Nanghin,[],[],"['Ngan-king', 'Nan-King']",GPE,
Nasruddin,[' officer in the Mongol Service'],[],['Nescradin'],PERSON,
Nassir-uddin,"[' Mahmud', ' Sultan of Delhi']",[],[],PERSON,
Natigay,[' Tartar idol'],[],[],PERSON,
Nayan,"["" Kublai's kinsman"", ' his revolt', '']","['  Kublai marches against;', '  routed in battle;', '  put to death by Kublai']",[],PERSON,
Necklaces,[' precious'],[],[],PRODUCT,
Necuveran,[],['etymology and people'],"['Nicobar', 'Necuveran']",LOC,
Plain of Nerghi,[' Plain of'],[],[],LOC,
Nestorian Christians,"[' at Mosul', '']","['  Tauris;', '  Kashgar;', '  Samarkand;', '  Yarkand;', '  Tangut;', '  Kamul;', '  Chingintalas;', '  Sukchur;', '  Kampichu, Kan-chau;', '  their diffusion in Asia;', '  among the Mongols;', '  Erguiul and Sinju;', '  Egrigaia;', '  Tenduc;', '  China;', '  Yachi, or Yun-nan fu;', '  Cacanfu;', '  Yang-chau;', ""  one in Polo's suite;"", '  churches at Chinghianfu;', '  church at Kinsay;', '  at St. Thomas;', '  Patriarch of;', '  Metropolitan']",[],NORP,
New Year Festival at Kublai's Court,[],[],[],DATE,
Nicolas,[' Christian name of Ahmad Sultan'],[],[],PERSON,
Nicolas Friar,[' of Vicenza'],[],[],PERSON,
Nigudar,"[' Mongol princes', ' king of Reobarle', ' King of the Caraonas', ' story of']","['His predatory expedition', ' and invasion of India']",['Nogodar'],PERSON,
Nile,[' sources of'],[],[],LOC,
Noah's Ark in Armenia,[],[],[],FAC,
Nobles of Venice,[''],"[""  Polo's claim to be one""]",[],NORP,
Nogai Khan,[''],"['  his intrigues and wars;', '  his history;', '  wars with Toctai']",[],PERSON,
Nomogan,"["" Kublai's son""]",[],['Numughan'],PERSON,
None,"[""[' title given to younger brothers or subordinate princes']""]",[],"[' Nono', ' Nuna']",PERSON,
North Star,"[' invisible in Java the Less', '']",[' visible again in India'],['Pole-Star'],LOC,
Nubia,"[' St. Thomas', '']",['  alleged use of elephants in'],[],GPE,
Nutmegs,[],[],[],PRODUCT,
Nyuche,[' race of Kin Emperors'],[],"['Churche', 'Niuche']",NORP,
Ogotai,[],[],"['Okkodai', 'Okkoday']",PERSON,
walnut and Sesame Oil,[],[],[],PRODUCT,
Oirad,[' a great Tartar tribe'],[],['Uirad'. 'Horiad'],NORP,
Orloks,[' or Marshals of the Mongol Host'],[],[],PERSON,
Oroech,[],[],[],GPE,
Oulatay,[' Tartar envoy from Persia'],[],"['Uladai', 'Ulatai']",PERSON,
Oxen,"[' humped', ' in Kerman', '']","['  wild, shaggy (Yaks)']",[],PRODUCT,
Pacauta!,['an invocation'],[],[],OTHERS,
Pagan,['in Burma'],"['  ruins at;', '  empire of']",[],NORP,
Paipurth,[],[],['Baiburt'],GPE,
Palace of Khan at Chagannor,[''],"['  at Chandu (Shangtu);', '  of cane;', '  at Langtin;', '  Cambaluc;', '  on Green Mount;', '  at Kenjanfu (Si-ngan fu);', '  of the Empire of Manzi at Kinsay;', '  in Chipangu, paved and roofed with gold']",[],FAC,
Palm Wine,[],[],"['Wine of Palm', ' Toddy']",PRODUCT,
Pamier,"[' Plain of', '', ' a lofty table-land']","['  its wild sheep;', '  great height;', '  pasture, etc.;', '  described by Hiuen Tsang, Wood, Goes, Abdul Mejid, Colonel Gordon and', '  others;', '  Dr. M.A. Stein on;', '  Lord Curzon on number of']","['Pamir', 'Pomilo']",LOC,
Pandrethan in Kashmir,[' Buddhist temple at'],[],[],FAC,
Panja River,[' or Upper Oxus'],[],[],LOC,
Paper-money,"["" Kublai's made from bark"", '']",['  modern. (_See_ also Currency.)'],['Chao'],OTHERS,
Paradise,[' Apples of'],[],[],FAC,
Paradise of the Old Man of the Mountain,[''],['  destroyed'],[],FAC,
Parliament,[' Tartar'],[],[],NORP,
Parrots,[],[],[],OTHERS,
Partridges,[''],"['  black;', '  Jirufti;', '  great (Chakors);', '  in mew. (_See_ also Francolin.)']",[],OTHERS,
Bay of Pasei,[],[],[],LOC,
Pashai,[],['  what region intended'],[],GPE,
Pashai-Dir,[''],[],[],GPE,
Patarins,[' heretics'],[],[],NORP,
Patra,"[' Alms-dish of Buddha', '']","['  miraculous properties;', '  Holy Grail of Buddhism']",[],PRODUCT,
Patu,[],[],['Batu'],PERSON,
Paukin,[],[],['Pao-ying'],GPE,
Payan,[],[],['Bayan'],PERSON,
Peaches,[' yellow and white (apricots)'],[],[],PRODUCT,
Peacocks at St. Thomas's,[''],['  special kind in Coilum'],[],OTHERS,
Pearls,[''],"[' in Caindu;', ' rose-coloured in Chipangu;', ' fishery of;', ' pearls and precious stones of kingdom of Maabar']",[],PRODUCT,
Pears,[' enormous'],[],[],PRODUCT,
Pedro,[' Prince of Portugal'],[],[],PERSON,
Pei-chau,[],[],['Piju'],GPE,
Pein,"[' province', '']",['  site of'],"['Pim', 'Pima', 'Bai']",GPE,
Peking,[' white pagoda at. (_See_ Cambaluc.)'],[],[],GPE,
Pentam,[' an island in the Straits of Malacca'],[],['Bintang'],LOC,
Pepper,"[' daily consumption of', ' at Kinsay', '']","['  change in Chinese use of;', '  great importation at Zayton, duty on;', '  white and black;', '  in Coilum;', '  Eli and Cananore;', '  Melibar;', '  Guzerat;', '  trade in, to Alexandria']",[],PRODUCT,
Peregrine falcons,[],[],[],OTHERS,
Persia,"[' extent of name to Bokhara', '']","[' spoken of;', ' three Magi of;', ' its eight kingdoms']",[],GPE,
Persian Gulf,[],[],[],LOC,
Peter,"["" Tartar slave of Marco Polo's""]",[],[],PERSON,
Pharaoh's rats,[],[],['Gerboa'],PRODUCT,
Pheasants,"[' large and long tailed', '']","[""  Reeves's""]",[],OTHERS,
Physicians,[],[],[],PRODUCT,
Pianfu,[],[],"[""P'ing-yang fu""]",GPE,
Piccoli,[],[],[],MONEY,
Pig-shell,[],[],[],MONEY,
Pilgrimage,"["" to Adam's Sepulchre in Ceylon"", '']",['  to Shrine of St. Thomas'],[],OTHERS,
Pine woods in Mongolian desert,[],[],[],PRODUCT,
Pine in South China,[],[],[],PRODUCT,
Pipino,[' Friar Francesco'],[],[],PERSON,
Pirates of Malabar,[''],"[' Guzerat;', ' Tana;', ' Somnath;', ' Socotra']",[],NORP,
Piratical customs at Eli,[],[],[],OTHERS,
Pistachioes,[],[],[],PRODUCT,
Pog,[' or Fiag River'],[],[],LOC,
Poison wind,[],[],[],OTHERS,
Antonio Polo,[' illegitimate son of Elder Marco'],[],[],PERSON,
Bellela Polo,"[' second daughter', '']",['  died before 1333'],[],PERSON,
Donata Polo,"[' wife of Traveller', '']","['  sale of property to her husband;', '  death between 1333-1336;', '  before Council;', '  may have been Loredano']",[],PERSON,
Felice Polo,[' a cousin'],[],[],PERSON,
Fiordelisa Polo,[],"[' wife of last', ' daughter of Maffeo the Younger']",[],PERSON,
Maffeo Polo,[''],"[' brother of Nicolo', ' in Kan-chau;', ' time of death between 1309 and 1318']",[],PERSON,
Marco Polo,[''],"[' the elder son of Andrea,  Uncle of the Traveller', ' the Traveller', '  his will', ' called Marcolino', ' son of Nicolo the Younger', '  veracity;', '  perplexities in his biography;', ""  Ramusio's notices, extracts from;"", '  recognition of his names of places, paralleled with Columbus;', '  nicknamed _Millioni_;', '  story of his capture at Curzola;', '  writes his book in prison at Genoa;', '  release and marriage;', '  arms;', '  claim to nobility;', '  supposed autograph;', '  his birth, circumstances of;', '  is taken to East;', '  employed by Kublai, mentioned in Chinese Records;', '  mission to Yun-nan;', '  governor of Yang-chau;', '  employed at Kan-chau, Kara Korum, Champa and Indian Seas;', '  returns home;', ""  mentioned in his Uncle Marco's will;"", '  commands a galley at Curzola;', '  taken prisoner and carried to Genoa;', '  his imprisonment there;', '  dictates his book to Rusticiano;', '  release and return to Venice;', '  evidence as to story of capture;', '  dying vindication of his book;', '  executor to his brother Maffeo;', '  record of exemption from municipal penalty;', '  gives copy of book to T. de Cepoy;', '  marriage and daughters;', '  lawsuit with Paulo Girardo, proceeding regarding house property;', '  illness and last will;', '  probable date of death;', '  place of burial;', '  professed portraits of;', '  alleged wealth;', '  estimate of him and of his book;', '  true claims to glory;', '  faint indications of PERSONality;', '  rare indications of humour;', '  absence of scientific notions;', '  geographical data in book;', '  his acquisition of languages, ignorance of Chinese, deficiencies in', '  Chinese notices;', '  historical notices;', '  allusions to Alexander;', '  incredulity about his stories;', '  contemporary recognition;', '  by T. de Cepoy, Friar Pipino;', ""  J. d'Acqui, Giov. Villani, and P. d'Abano;"", '  notice by John of Ypres;', '  borrowings in poem of Bauduin de Sebourc;', '  Chaucer and;', '  influence on geography, obstacles to its effect;', '  character of mediaeval cosmography;', '  Roger Bacon as geographer;', '  Arab maps;', ""  Marino Sanudo's map;"", '  Medicean;', ""  Carta Catalana largely based on Polo's book;"", ""  increased appreciation of Polo's book;"", '  confusions of nomenclature;', '  introduction of block-printing into Europe and Polo;', '  dictates his narrative;', '  found at Venice;', '  his age;', '  noticed and employed by Kublai;', '  grows in favour, many missions;', '  returns from one to India;', '  escapes from the Karaunas;', '  hears of breed of Bucephalus;', '  recovers from illness in hill climate;', '  hears from Zulficar about Salamander;', '  at Kan-chau;', '  brings home hair of yak;', '  and head and feet of musk deer;', ""  witnesses events connected with Ahmad's death;"", '  noticed in Chinese annals;', '  whether he had to do with Persian scheme of paper currency in;', '  sent by Khan into Western provinces;', '  governor of Yang-chau;', '  probable extent of his authority;', '  aids in constructing engines for siege of Siang-yang;', '  difficulties as to this statement;', '  on number of vessels on Great Kiang;', '  ignorant of Chinese;', '  on greatness of Kinsay;', '  his notes;', '  sent to inspect amount of revenue from Kinsay;', '  his great experience;', '  never in islands of Sea of Chin;', '  in kingdom of Chamba;', '  historical anecdotes;', '  detained five months in Sumatra, stockade party against wild people;', '  brings Brazil seed to Venice;', '  partakes of tree-flour (sago);', '  takes some to Venice;', '  in six kingdoms of Sumatra;', '  witnesses arrest for debt in Maabar;', '  his erroneous view of Arabian coast;', '  Indian geography;', '  his unequalled travels;', '  Venetian documents about him']",[],PERSON,
Maroca Polo,[' sister of Nicolo the Younger'],[],[],PERSON,
Nicolo  Polo,[' his alleged second marriage and sons;'],"['  their first journey;', '  cross Black Sea to Soldaia;', '  visit Volga country, etc.;', '  go to Bokhara;', ""  join envoys to Khan's Court;"", ""  Kublai's reception of;"", '  sent back as envoys to Pope;', '  receive a Golden Tablet;', '  reach Ayas;', '  Acre;', '  Venice;', '  find young Marco there', '---- Nicolo, Maffeo and Marco, proceed to Acre;', '  set out for East, recalled from Ayas;', ""  set out again with Pope's letters, etc.;"", ""  reach Kublai's Court;"", '  are welcomed;', '  _see_ on their journey outward;', '  their alleged service in capture of Siang-yang;', '  Khan refuses them permission to return home;', '  allowed to go with ambassadors;', '  receive Golden Tablets;', '  on return;', '  story of their arrival at Venice;', '  scheme to assert their identity']",[],PERSON,
Maria Polo,"[' last survivor of the family', '']",['  doubts as to her kindred'],[],PERSON,
Polo Family,"[' its duration and end', ' according to Ramusio', '']","[' origin;', ' last notices of', ' branch of S. Geremia']",[],NORP,
Polygamy,[''],['  supposed effect on population'],[],OTHERS,
Ponent,"[' or West', ' term applied by Polo to Kipchak', ' the Mongol Khanate of']","['    the Volga, _see_ Kipchak']",[],GPE,
Popinjays,[],[],[],OTHERS,
Porcelain manufacture,[''],"['  fragments found at Kayal;', '  Chinese']",[],OTHERS,
Porcelain shells,[],[],['Cowries'],MONEY,
Porcupines,[],[],[],OTHERS,
Postin,[' sheep-skin coat'],[],[],PRODUCT,
Posts,"[' post-houses and runners', '']",[' in Siberia'],[],OTHERS,
Poultry,"[' kind of', ' in Coilum', '']",['  in Abyssinia (guinea-fowl?)'],[],PRODUCT,
Pound,[' sterling'],[],[],OTHERS,
Ptolemy,[''],['  Sarmatic Gates'],[],PERSON,
Pulisanghin,[' River and Bridge'],[],['Pulisangan'],LOC,
Pygmies,[' factitious (?)'],[],[],NORP,
Quails,['in India'],[],[],OTHERS,
Queen of Mutfili,[],[],[],PERSON,
Quicksilver and sulphur,[],[],[],PRODUCT,
Quills,[],[],[],PRODUCT,
Rainy season,[],[],[],OTHERS,
Ramusio,"[' Giov. Battista', ' _passim_', '']","['  his biographical notices of Polo;', '  his edition of Polo']",[],PERSON,
Rashiduddin,"[' _alias_ Fazl-ulla Rashid', ' Persian statesman and']","[' historian of the Mongols,', ' frequently quoted in the Notes']",[],PERSON,
Red Sea,"[' trade from India to Egypt by', '']","['  described in some texts as a river;', '  possible origin of mistake']",[],LOC,
Rhubarb,[' _Rheum palmatum_'],[],[],PRODUCT,
Rice,[],[],[],PRODUCT,
Rice-wine,[''],['  at Yachi'],[],PRODUCT,
Robbers in Persia,[],[],[],NORP,
Rockhill,['Rubruck_ and _Diary of a Journey'],"['  on the titles Khan, Khatun, etc.;', '  on horn horse-shoes;', '  earliest mention of name Mongol in Oriental works;', '  Mongol storm-dispellers;', '  charge of cannibalism against Tibetans;', '  on Bonbo Lamas;', '  Tablets (_hu_);', '  mechanical contrivances at E. Court;', '  Mongol etiquette;', '  Chinese leather-money;', '  Mongol post-stations;', '  pocket-spittoons;', '  from Peking to Si-ngan fu;', '  descent of Yellow River;', ""  road between T'ung-kwan and Si-ngan fu;"", '  two famous Uigur Nestorians;', '  on the word Salar;', '  on the Hui-hui sects;', '  on the Alan;', '  on branch of Volga Bulgars']",[],PERSON,
Rome,[' the Sudarium at'],[],[],GPE,
Roxana,"[' daughter of Darius', ' wife of Alexander']",[],[],PERSON,
Rubies,"[' Balas', '']","[' of Ceylon;', "" of Adam's Peak""]",[],PRODUCT,
Rubruquis,[' Friar William de'],[],['Rubruc'],PERSON,
Ruc,"[' bird called', ' described', '']","['  its feathers and quills;', '  wide diffusion and various forms of fable;', '  eggs of the Aepyornis;', ""  Fra Mauro's story;"", '  genus of that bird, condor;', '  discovery of bones of _Harpagornis_ in New Zealand;', '  Sindbad, Rabbi Benjamin, romance of Duke Ernest;', ""  Ibn Batuta's sight of Ruc;"", '  rook in chess;', '  various notices of']","['Rukh', 'Gryphon']",PRODUCT,
Rudbar-i-Lass,"["" Robbers' River""]",[],[],LOC,
Rudbar,[' district and River'],[],['Reobarles'],GPE,
Rudder,"[' single', ' noted by Polo as peculiar', '']","['  double, used in Mediterranean']",[],OTHERS,
Ruomedam-Ahomet,[' King of Hormuz'],[],[],PERSON,
Russia,"[' annexes Georgia', '']","['  great cold, Arab accounts of;', '  silver mines;', '  subject to Tartars;', '  conquered by Batu']",['Rosia'],GPE,
Russia leather,[''],['  clothes of'],[],PRODUCT,
Rusticiano of Pisa,[''],"['  introduces himself in prologue;', ""  writes down Polo's book;"", '  extracts and character of his compilation;', '  his real name;', '  his other writings']",[],PERSON,
Saba,"[' city of the Magi', ' the city of the three magi', ' in Persia']",[],"[' Savah', 'Sava']",GPE,
Sable,[' its costliness'],[],[],PRODUCT,
Sachiu,"[' ""Sand-district""']",[],"['Shachau', 'Sachin', 'Sacchion', 'Cha-tcheou']",GPE,
Sacrifices,[],[],[],PRODUCT,
Saffron,[' fruit-serving purposes of'],[],[],PRODUCT,
Sagatu,"["" general of Kublai's""]",[],[],PERSON,
Saggio,[],[],['1/6 oz.'],MONEY,
Saianfu,[],"["" Kublai's siege of;"", "" Polo's aid in taking;"", "" difficulties in Polo's account;"", ' not removed by Pauthier, notice by Wassaf, Chinese account,', "" Rashiduddin's;"", ' treasure buried']","['Siang-yang-fu', 'Sa-van-fu']",GPE,
St. Barsauma,[' and monastery of'],[],"[' Brassamus', 'Barsamo']",PERSON,
St. Blasius,[' Church at Sivas'],[],['Blaise'],PERSON,
St. James' Shrine,[' Gallicia'],[],[],LOC,
St. John the Baptist,"[' Church of', ' in Samarkand']",[],[],PERSON,
Major Oliver St. John,[],[],[],PERSON,
St. Leonard's Convent in Georgia,[' and the fish miracle'],[],[],FAC,
St. Sabba's at Acre,[],[],[],FAC,
St. Thomas,"[' the Apostle', '']","[' his shrine in India;', ' his murderers, and their hereditary curse;', ' reverenced by Saracens and heathen;', ' miracles in India;', ' story of his death;', ' tradition of his preaching in India;', ' translation of remains to Edessa;', ' King Gondopharus of legend a real king;', ' Roman Martyrology;', ' the localities;', ' alleged discovery of reliques;', ' the Cross;', ' church ascribed to;', ' in Abyssinia']",[],PERSON,
Saker falcons,[],[],[],OTHERS,
Sakya Muni,[''],"['  death of;', '  recumbent figures of;', '  story of;', ""  his footmark on Adam's Peak;"", '  Alms dish, Holy Grail;', '  tooth relique']","['Sagamon Borcan', 'Buddha', 'Sakyamuni', 'Sogoman Borcan', 'Sergamon Borcam']",PERSON,
Salamander,[' the'],[],[],OTHERS,
Salt rock,[''],"['  in Badakhshan;', '  used for currency;', '  extracted from deep wells;', '  in Carajan province;', '  manufactured in Eastern China;', '  manufacture, revenue and traffic in;', '  trade on the Kiang;', '  junks employed therein']",[],LOC,
Salt stream,[],[],[],LOC,
Samagar,[],[],[],PERSON,
Samarkand,[''],"['  story of a miracle at;', '  colony near Peking from']",['Samarcan'],GPE,
San Giovanni Grisostomo,[''],"["" parish in Venice where the Ca' Polo was;"", ' theatre']",[],PERSON,
San Lorenzo,"[' Venice', ' burial place of Marco and his father']",[],[],GPE,
Sangon,[' the Title '],[],['Tsiang-kiun'],PERSON,
Sanuto of Torcelli,"[' Marino', '']","['  his World Map;', '  on long range']",[],PERSON,
Sapurgan,[],[],"['Saburkan', ' Shaburkan', ' Shibrgan', 'Shibbergaun']",GPE,
Sarai,"[' capital of Kipchak', '']","['  city and its remains;', '  perhaps occupied successive sites']",['Sara'],GPE,
Sea of Chin,[],[],[],LOC,
Sea of England,[],[],[],LOC,
Sea of India,[],[],[],LOC,
Sea of Rochelle,[],[],[],LOC,
Sea of Sarain,[],[],[],LOC,
Seal,[' Imperial'],[],[],PRODUCT,
Sebourc,"[' Bauduin de', ' _see Bauduin de Sebourc_']",[],[],PERSON,
Seilan,"[' King of', ' his pearl-ponds', ' island of']","['Abounds in precious stones', 'Origin of Boodhism in', '  circuit of;', '  etymology of;', '  customs of natives;', ""  mountain of Adam's (_alias_ Sagamoni Borcan's) Sepulchre;"", '  history of Buddha;', '  origin of idolatry;', '  subject to China']",['Ceylon'],LOC,
Sendal,[' a silk texture'],[],[],PRODUCT,
Sendemain,[' king of Seilan'],[],[],PERSON,
Sensin,"[' ascetics', ' devotees living on bran']",[],[],NORP,
Sentemur,[],[],[],PERSON,
Sepulchre of our Lord,[''],['  oil from'],[],FAC,
Serazi,[' kingdom of Persia'],[],"['Shiraz', 'Cerazi']",GPE,
Seres,[],"[' their tree wool;', ' ancient character of the']",[' Sinae'],GPE,
Serpents,"[' great', ' i.e. alligators']",[],[],OTHERS,
Sesame,[],[],[],PRODUCT,
Shabankara,[],[],"['Shawankara', 'Soncara']",GPE,
Shan,[],[],"['Laotian', ' Thai']",GPE,
Shan race,[],[],[],NORP,
Shan state of Pong,[],[],['Pong'],GPE,
Shan-tung,[''],"['  silk in;', '  pears from']",['Zanton'],GPE,
Shawankara,[],[],['Soncara'],GPE,
Sheep,[' fat-tailed in Kerman'],[],[],OTHERS,
large Indian Sheep,[],[],[],OTHERS,
none Sheep in Manzi,[],[],[],OTHERS,
Sheep of Pamir,[' of Badakhshan'],[],['Ovis Poli'],OTHERS,
wild Sheep,[],[],['Ovis Vignei'],OTHERS,
Sheep with trucks behind,[],[],[],OTHERS,
Zanghibar Sheep,[],[],[],OTHERS,
Shieng,[' the Supreme Board of Administration'],[],"['Sheng', 'Sing']",NORP,
Shighnan,[' ruby mines'],[],['Syghinan'],GPE,
Ships,"[' of the Great Khan', '']","['  of India at Fuju;', '  of Manzi described;', '  mediaeval, accounts of;', '  in Japan;', '  in Java Seas;', '  at Eli']",[],PRODUCT,
Siberia,[],[],[],GPE,
Si-hu,[' Lake of Kinsay or Hang-chau'],[],[],LOC,
Sijistan,[],[],[],GPE,
Siju,[],"['  manufacture at Yezd;', '  at Taianfu;', '  in Shan-si and Shen-si;', '  in Kenjanfu;', '  Cuncun;', '  Sindafu;', '  Kwei-chau;', '  Tasinfu;', '  Piju;', '  Pao-ying-Hien;', '  Nanghin;', '  Chinhiang-fu;', '  Chinginju;', '  Suju;', '  Vughin;', '  Kinsay;', '  Ghiuju']",['Suthsian'],GPE,
Sikintinju,"[' called Ghelle (of Gilan)', '']",[],['Kien-chow'],GPE,
Silk,[],[],[],PRODUCT,
Silk cotton tree,[],[],[],PRODUCT,
duty on Silk,[],[],[],OTHERS,
Silk and gold stuffs,"[' Turcomania', '']",[],[],PRODUCT,
Silk stuffs and goods,[],"['  Georgia;', '  Baghdad;', '  Yezd;', '  Kerman;', '  Tenduc province;', '  Cambaluc;', '  Juju;', '  Sindafu;', '  Cacanfu;', '  Chinangli;', '  Suju;', '  Vughin;', '  Kinsay;', '  in animal patterns;', '  with Cheetas;', '  of Kelinfu;', '  with giraffes']",[],PRODUCT,
Silk tent ropes,"[' ', '']",['  bed furniture'],[],PRODUCT,
Silk trade at Cambaluc,[''],['  at Kinsay'],[],OTHERS,
Silk worms,[],[],[],OTHERS,
Silver chairs,[],[],[],PRODUCT,
Silver Island,[],[],[],LOC,
Silver plate in Chinese taverns,[],[],[],PRODUCT,
Simum,[' effects of'],[],[],OTHERS,
Sindachu,[],[],['Siuen-hwa fu'],GPE,
Sinju,[],[],"['Si-ning fu', 'Ichin-hien']",GPE,
Sinju-matu,[],[],['Sinjumatu'],GPE,
Sivas,[],[],"[' Siwas', ' Sebaste', ' Sevasd', 'Savast']",GPE,
Slaves in Bengal,[],[],[],NORP,
Sledges,[' dog-'],[],[],PRODUCT,
Sleeping-mats,[' leather'],[],[],PRODUCT,
Socotra,"[' island of', '']","['  history of;', '  Christian Archbishop;', '  aloes of']",['Scotra'],LOC,
Soer,[],[],['Suhar'],GPE,
Soldan,[' a Melic'],[],[],PERSON,
Soli,[' kingdom of'],[],"[' Solli', 'Chola', 'Tanjore']",GPE,
Somnath,[''],['  gates of'],['Semenat'],GPE,
Condur,[],[],['Pulo Condore Group'],LOC,
Sondur,[],[],['Pulo Condore Group'],LOC,
Sorcerers,"[' sorceries of Pashai (Udyana)', '']","['  Kashmir;', '  Lamas and Tibetans']",[],NORP,
Spice,[' Spicery'],[],[],PRODUCT,
Spice wood,[],[],[],PRODUCT,
Spikenard,[],[],[],PRODUCT,
Spodium,[],[],['Spodos'],PRODUCT,
Springs,[' hot'],[],[],LOC,
Steel mines at Kerman,[''],"['  in Chingintalas;', '  Indian;', '  Asiatic view of']",[],FAC,
Stefani,[' Signor'],[],[],PERSON,
Stirrups,[' short and long'],[],[],PRODUCT,
Stone towers in Chinese cities,[],[],[],FAC,
Suburbs of Cambaluc,[],['plan of'],[],FAC,
Sudarium,[' the Holy'],[],[],PRODUCT,
Sugar,"[' Bengal', '']","['  manufactured;', '  art of refining;', '  of Egypt and China']",[],PRODUCT,
Sukchur,[' province Sukkothai'],[],['Suh-chau'],GPE,
Sulphur and quicksilver,[' potion of longevity'],[],[],PRODUCT,
Sumatra,[' island of'],"['  described, its kingdoms;', '  circuit', '  city and kingdom of (Samara for Samatva);', '  legend of origin;', '  Ibn Batuta there;', '  its position;', '  latest mention of;', '  wine-pots']","['Java the Less', ' Sumuntala', 'Samudra', 'Samara', 'Shamuthera']",LOC,
Sundara Pandi Devar,"[' Sondar Bandi Davar', "" king in Ma'bar"", '']","['  his death;', ""  Dr. Caldwell's views about""]",['Sonder Bandi Davar'],PERSON,
Sung,"["" a native dynasty reigning in S. China till Kublai's conquest"", '']","['  their paper-money, effeminacy;', '  cremation;', ""  Kublai's war against;"", '  end of them']",[],OTHERS,
Suolstan,[' a kingdom in Persia'],[],"['Shulistan', 'Cielstan']",GPE,
Swans,"[' wild', ' at Chagan-Nor']",[],[],OTHERS,
Tablet,"["" Emperor's"", ' adored with incense']",[],[],PRODUCT,
Tablets of Authority,"[' Golden (_Paizah_)', '']","[' presented by Khan to Polos;', "" lion's head and gerfalcon;"", ' bestowed on distinguished captains, inscription;', "" cat's head;"", ' granted to governors of different rank']",[],PRODUCT,
Tablets worshipped by Cathayans,[],[],[],PRODUCT,
Tabriz,[],[],"['Tauris', 'Tabreez', 'Toris']",GPE,
Tacuin,[],[],[],PRODUCT,
Tadinfu,[],[],[],GPE,
Tagachar,[],[],[],PERSON,
Taianfu,[' king of N. China'],[],"[""T'ai-yuan-fu""]",GPE,
Taidu,"[' Daitu', ' Tatu', "" Kublai's new city of Cambaluc""]",[],[],GPE,
Tailed men,"[' in Sumatra', '']","['  elsewhere;', '  English']",[],NORP,
Taitongfu,[],[],[' Tathung'],GPE,
Tajiks,"[' of Badakhshan', ' great topers']",[],[],NORP,
Talikan,[],[],"[' Thaikan', 'Taican', 'Khoolloom']",GPE,
Tamarind,[' pirates use of'],[],[],PRODUCT,
Tana,"['near Bombay', ' kingdom of']",[],['Azov'],GPE,
Tanduc,"[ 'a province of Eastern Tartary', ' plain of', ]","['', 'The chief seat of Prester John', 'Called Gog and Magog']",['Tenduc'],LOC,
Tangut,"[' Chinese Si Hia', ' or Ho Si', '']",['  five invasions of'],[],GPE,
Tangutan,[' term applied to Tibetan speaking people round the Koko-nor'],[],[],NORP,
Tanpiju,[],[],['Shaohing?'],GPE,
Tarantula,[],[],[],PRODUCT,
Tartars,[''],"['  different characters used by;', '  identified with Gog and Magog;', '  ladies;', '  their first city;', '  original country, tributary to Prester John;', '  revolt and migration;', '  earliest mention of the word;', '  make Chinghiz their king;', '  his successors;', '  their customs and religion;', '  houses;', '  waggons;', '  chastity of their women;', '  polygamy, etc.;', '  their gods and idols;', '  their drink (Kumiz);', '  cloths;', '  arms, horses, and war customs;', '  military organization;', '  sustenance on rapid marches;', '  blood-sucking;', '  portable curd;', '  tactics in war;', '  degeneracy;', '  administration of justice;', '  laws against theft;', '  posthumous marriage;', '  the cudgel;', ""  Rubruquis' account of;"", ""  Joinville's;"", '  custom before a fight;', '  want of charity to the poor;', '  conquerors of China, history of;', '  excellence in archery;', '  objection to meddling with things pertaining to the dead;', '  admiration of the Polo mangonels;', '  employment of military engines;', '  their cruelties;', '  arrows;', '  marriage customs']",[],NORP,
Tatu  River,[],[],[],LOC,
Taurizi,[' Torissi'],[],[],NORP,
Tebet,[],"['  boundary of;', '  its acquisition by Mongols;', '  organisation under Kublai;', '  dogs of']",['Tibet'],GPE,
Teimur,"["" Kublai's grandson and successor"", ' grandson and successor of Kublai']",[],['Temur'],PERSON,
Tembul,[' chewing'],[],['Betel'],PRODUCT,
Tents,"["" the Khan's""]",[],[],PRODUCT,
Tholoman,[],[],['Coloman'],GPE,
Thread,[' Brahmanical'],[],[],PRODUCT,
Threshold,[' a great offence to step on the'],[],[],OTHERS,
Tibetans,[''],"['  superstitions of;', '  and Kashmiris (Tebet and Keshimur), sorceries of;', '  accused of cannibalism']",[],NORP,
Tierce,"[' half tierce', ' etc.', ' hours of']",[],[],TIME,
Tigers,[''],"[' trained to the chase;', ' in Cuncun;', ' in Caindu;', ' Kwei-chau']",[],OTHERS,
Tigris,[''],['  at Baghdad'],['Volga'],LOC,
Tiju,[],[],[],GPE,
Tiles,[' enamelled'],[],[],OTHERS,
Tithe,[],[],[],OTHERS,
Togan,[],[],[],PERSON,
Togrul Wang Khan,[],[],[],PERSON,
Toktai,"[' Lord of the Ponent)', '']","[' wars with Noghai;', ' his symbolic message']",['Toctai'],PERSON,
Tolobuga,[],[],['TULABUGHA'],PERSON,
Toman,"[' Mongol word for 10', '000']",[],['Tuman'],QUANTITY,
Tornesel,[],[],[],MONEY,
Toscaul,[' watchman'],[],"[' toskaul', 'toscaol']",NORP,
Trebizond,[''],"['  Emperors of, and their tails']",[],GPE,
Trees,"[' of the Sun and Moon', '']","['  superstitions about;', '  by the highways;', '  camphor;', '  producing wine;', '  producing flour (sago)']",[],OTHERS,
Trevisano,[' Azzo'],[],[],PERSON,
Trevisano Marc' Antonio,[' Doge'],[],[],PERSON,
Trusty lieges,[' devoted comrades of king of Maabar'],[],[],NORP,
Tuc,"[' tuk', ' tugh_', ' commanders of 100', '000', ' horse-tail or yak-tail;']",['  standard'],[],QUANTITY,
Tudai-Mangku,[],[],"['Totamangu', 'Totamangul']",PERSON,
Tunny fish,[],[],[],PRODUCT,
Tun-o-kain,[' kingdom of Persia'],[],['Tunocain'],GPE,
Turbit,[],[],['radex Turpethi'],PRODUCT,
Turcomania,[],[],['Anatolian Turkey'],GPE,
Turkey,[' Great (Turkestan)'],[],[],GPE,
Turkmans,"[' distinction between', '']",['  horses'],[],NORP,
Turks,"[' ancient mention of', '']","[""  friend of Polo's;"", '  and Mongols']",[],NORP,
Turquans,[' Turkish horses'],[],[],PRODUCT,
Turquoises,[' in Kerman'],['  in Caindu'],[],PRODUCT,
Turtle doves,[],[],[],PRODUCT,
Tutia,[' preparation of'],[],['Tutty'],PRODUCT,
Twelve Barons over Khan's Administration,[],[],[],NORP,
Tyunju,[' porcelain manufacture'],[],[],GPE,
Ung,[' Tartar tribe.'],[],['Ungkut'],NORP,
Ungrat,[' Tartar tribe'],[],['Kungurat'],NORP,
Unken,[' City'],[],[],GPE,
Vair,[' the fur and animal'],[],[],PRODUCT,
Venice,[''],"['  return of Polos to;', '  its exaltation after Latin conquest of Constantinople;', '  its nobles;', ""  Polo's mansion at;"", '  galleys;', '  archives at;', '  articles brought from East by Marco to']",[],GPE,
Ventilators,[],[],[],PRODUCT,
Verniques,[],[],[],PRODUCT,
Vessels,"[' war', '']",['  stitched of Kerman ([Greek: ploiaria rhapta])'],[],PRODUCT,
Vineyards,"[' in Taican', '']","['  Kashgar;', '  Khotan;', '  in N. China']",[],FAC,
Vochan,[''],"[' battle there', 'dialect']","[' Yungchan', 'Unchan']",GPE,
Vokhan,[' province of'],[],"['Wakhan', 'vokhan ']",GPE,
Vughin,[],[],[],GPE,
Vuju,['in Kiangnan'],[],[],GPE,
Wakhan Mountains,[],[],[],LOC,
Wakhijrui Pass,[],[],['Wakhjir Pass'],LOC,
Wall of Alexander,[],[],['Caucasian'],FAC,
Wall of Gog and Magog,['i.e. China'],[],[],FAC,
Walnut-oil,[],[],[],PRODUCT,
Wangchu,[' conspires with Chenchu against Ahmad'],"['War vessels, Chinese']","['Vanchu', 'Wangcheu']",PERSON,
Water,[' bitter'],[],[],PRODUCT,
Water Clock,[],[],[],PRODUCT,
Whale oil,[' including spermaceti'],[],[],PRODUCT,
Whales,[''],"['  in Socotra;', '  Madagascar;', '  species of Indian Ocean;', '  sperm (Capdoille)']",[],OTHERS,
White bears,[],[],[],OTHERS,
White camels,[],[],[],OTHERS,
White City,"[' meaning of term among Tartars', ' of Manzi frontier']",[],[],GPE,
White Feast at Kublai's City,[],[],[],EVENT,
White Horde,[],[],[],NORP,
Wind,"[' poison (Simum)', '']",['  monsoons'],[],OTHERS,
Wine,"[' of the vine', ' Persians lax in abstaining from', '']",['boiled'],[],PRODUCT,
rice Wine,[''],"['  and of wheat;', '  at Yachi;', '  spices, etc., in Caindu;', ""  Kien-ch'ang;"", '  Cangigu;', '  Coloman;', '  Kinsay']","['Samshu', 'darasun']",PRODUCT,
Wine from sugar,[],[],[],PRODUCT,
Wood,"[' Lieutenant John', ' Indian Navy', '']",[' his elucidations of Polo in Oxus regions'],[],PRODUCT,
Wool,"["" Salamander's""]",[],[],PRODUCT,
Wylie,[' Alexander'],[],[],PERSON,
Yajuj,[' and Majuj'],[],['Gog and Magog'],NORP,
Yam,['a post-stage or post-house'],[],['Yamb'],FAC,
Yang-chau,"[' city', '']","["" Marco's government there""]",['Yanju'],GPE,
Yarkand,[],[],"['Yarcan', 'Yarcund']",GPE,
Yasdi,[' a city of Persia'],['  silk fabrics of'],"['Yezd', 'yasdi ']",GPE,
Yasdi,['silk tissue '],[],[],PRODUCT,
Ydifu,[],[],[],GPE,
Yesudar,[],[],[],PERSON,
Yrac,[' province'],[],[],GPE,
Yu,[],[],['Jade'],PRODUCT,
Yung-chang fu,[],[],['Shen-si'],GPE,
Yun-nan-fu,[' city'],[],['Yachi'],GPE,
Yuthia,"[' Ayuthia (Ayodhya)', ' mediaeval capital of Siam']",[],[],GPE,
Zanghibar,[''],"['  currents off;', '  Ivory trade;', '  its blacks, women']","[' Zanjibar', ' Zanzibar', 'Zangibar', 'Zanguebar']",LOC,
Zayton,[''],"['  the great mediaeval port of China;', ""  Khan's revenue from;"", '  porcelain;', '  language;', '  etymology;', '  mediaeval notices;', '  identity;', '  Chinchew, a name misapplied;', '  Christian churches at;', '  ships of']","[""T'swan-chau"", 'Chwan-chau', 'Chinchew', ' Zaitun', ' Zeiton', ' Cayton', 'Tsiuan-chau', 'Amoy']",GPE,
Zic,[],[],['Circassia'],GPE,
Zorza,[],[],['Chorcha'],GPE,
Zu-'lkarnain,"[' ""the Two Horned', '"" an epithet of Alexander']",[],['Zulcarniain'],NORP,
Zurficar,"["" a Turkish friend of Marco Polo's""]",[],"['Zulficar', 'Zurpica']",PERSON,
Achalech-Manji,[' province of'],[],[],GPE,
Argiron,[' a city of Armenia'],[],['Erzeroum'],GPE,
Ascelin,"[' a Dominican friar', ' his mission to the Tartars', ' then encamped in Persia']","['Reception by Baiothnoy the Tartar chief', 'His dismissal']",['Anselm'],PERSON,
Baiothnoy,[' a Tartar chief'],['His letter sent by Ascelin to the Pope'],[],PERSON,
Baksi,"[' priests of Boodh', ' their enchantments and idol worship', '\n\nBaku', ' a city of Persia', ' abounds in naphtha']",[],[],PERSON,
Bangu,[' country of'],[],['Eastern Siberia'],GPE,
Belor,[' a mountain range'],[],['Beloor'],LOC,
Boni,"[' Count Baldelli', ' editor of two Italian versions of the Travels', '\n\nBoodhism in Central Asia']",['Extensively diffused through Japan'],[],PERSON,
Bulgaria,['country on the Volga'],[],[],GPE,
Burnes,[' Sir Alexander'],[],[],PERSON,
Ca-cian-fu,[' city of'],[],['Tong-tcheou'],GPE,
Ca-cian-fu,[' a city of cathay'],[],['Ho-kien-fou'],GPE,
Cai-gui,['city of'],[],['Qua-tcheou'],GPE,
Cali,[' a city of Southern India'],['The king possesses great treasures'],['Kael'],GPE,
Calacian,"[' a city of Tangut', ' Central Asia']",[],[],GPE,
Camandu,[' a city of Persia'],[],[],GPE,
Can-giu,[' city of'],[],['Kiang-chan-fui'],GPE,
Canpicion,[' capital of the province of Tangut'],[],['Kan-tcheou'],GPE,
Carpini,"[' a Franciscan friar', ' his mission to Cuyn?? (Kuyuk) Khan']","['Reaches Kiev', 'Arrives at a Tartar court', 'His reception at the court of Cuyn?? 55-58', 'Departure and return']",[],PERSON,
Caya-fu,[' a famous castle'],[],[],GPE,
Charlemagne,['in his reign Germany emerged from barbarism'],[],[],PERSON,
Chaym,[' a large city'],[],['Kao-yeou'],GPE,
Chen-gui,[' city of'],[],['Yen-tcheou-fou'],GPE,
Cianba,[' a country between Cochin China and Camboia'],"['Kublai sends an expedition thither', ' ib']",['Tsiompa'],GPE,
Cian-cian,[' a town on a mountain'],[],['Kiu-tcheou'],GPE,
Cianganor,[' imperial palace at'],[],[],GPE,
Cian-gli,[' city of'],[],['Te-tcheou'],GPE,
Cian-glu,[' city of'],[],['Tsan-tcheou'],GPE,
Ciarcian,[' a province of Tartary'],[],['Karashehr'],GPE,
Cin-ghian-fu,[' city of'],"['Cin-ghin-gui (Tchang-tcheou-fou)', ' a great and noble city']",['Tchin-kiang-fou'],GPE,
Cin-gui (Sut-zi-hien},[],"['city of', 'Another city of the same name']",[''],GPE,
Clemenfu,[' a rich and powerful city'],[],['Tai-yuen-fou'],GPE,
Coilac,[' city of'],[],[],GPE,
Coilon,[' a kingdom of India'],"['Comari', ' a country of Sourthen India around Cape\tComorin']",[],GPE,
Conci,[' king of Touran'],[],[],PERSON,
Condi-fu,[' city of'],[],['Tsi-nan-fou'],GPE,
Cormos,[' a city and island in the Persian Gulf'],"['A great emporium of Indian commerce', 'Extreme violence of the heat', 'Invaded by the King of Creman (Carmania)']",['Ormus'],GPE,
Corvino,"[' a Minorite friar', 'created Archbishop of Kambalu']",[],[],PERSON,
Creman,[' kingdom of'],"['Its productions and manufactures', ' ib', 'City of Creman (Kerman)']",['Carmania'],GPE,
Cun-chin,['province of'],[],[],GPE,
Cyn-gui,['province of'],[],[],GPE,
De Guignes,[],[],[],PERSON,
Dominican friars,[' their mission to Persia'],"['Commence their journey', 'Their reception by Baiothnoy', 'and dismissal']",[],NORP,
Dor,"[' king', ' story respecting']","['Carried a prisoner to Prester John', 'Is restored to his kingdom']",[],PERSON,
Eighurs,[' a Turkish tribe'],[],[],NORP,
Erginul,[' a kingdom and city of Tangut'],[],[],GPE,
Euphrates river,[],[],[],LOC,
Europeans,[' excluded from China and the interior regions of Asia'],[],[],NORP,
Ezina,[' a city of Tangut'],[],[],GPE,
Frampton,"[' John', ' his English translation of Marco Polo']",[],[],PERSON,
Fu-gui,[' kingdom of'],"['The capital', ' Fu-gui (Fou-tcheou-fou)', ' a place of extensive trade']",['Concha'],GPE,
Gaui,['Pariahs of Southern India'],[],[],NORP,
Gengis,[' the first khan of the Tartars'],"['His battle with Prester John (Unchan or Ouang)', 'His conquests', 'and death', ' ib', 'His successors']",[],PERSON,
Geo-gui,['city of'],[],"['Tso-tcheou', 'Gin-gui]",GPE,
Ginghintalas,[' a province of Tangut'],[],['Barkoul'],GPE,
Golconda,"[' in India', ' diamond mines of']",[],[],GPE,
Innocent IV,[],"[' Pope', ' his letter to the Khan of the Tartars']",[],PERSON,
Islands of the Oriental Archipelago,[],[],[],LOC,
Jomard,[' M'],[],[],PERSON,
Kain-du,[' province of'],[],[],GPE,
Kangigu,[' province of'],[],[],GPE,
Karazan,[' province and city of'],"['Its great snakes and serpents', 'Wicked custom of the inhabitants']",[],GPE,
Kardandan,[' province of'],['Magicians'],[],GPE,
Khoten,[' a city of Turkestan'],[],[],GPE,
Kiev,[' the ancient capital of Russia'],[],[],GPE,
Kirghiz-tribe,[' roam over the wilds of Tartary'],[],[],NORP,
Klaproth,['M'],[],[],PERSON,
Kotou,[' or ceremony of prostration'],[],[],OTHERS,
Laias,['a city of Armenia the Lesser'],[],['Aias'],GPE,
Lin-gui,[' city of'],[],[],GPE,
Louis,"[' St', ' king of France', ' receives an embassy from the Tartars']",['Sends William de Rubruquis on a mission'],[],PERSON,
Madagascar,[' first mentioned by Polo'],"['The rukh a bird of', 'The island described']",[],LOC,
Malacca,[' peninsula of'],[],[],GPE,
Mangalu,[' son of Kublai'],[],[],PERSON,
Mangou,[' grandson of Gengis'],"['Chosen great Khan', 'His reception of Rubruquis', 'Superstitions of his court', 'Desolates Thibet']",[],PERSON,
Marsden,"[' Mr', ' passim']",[],[],PERSON,
Martini,[' his description of the Chinese empire'],[],[],PERSON,
Masulipatam,[' a province of India'],[],[],GPE,
Oxus,[],[],[],LOC,
Parris,[' M'],[' editor of the French Chronicles'],[],PERSON,
Pascia,[' province of'],[],['Peshawer'],GPE,
Pau-chym,[' city of'],[],['Pao-yng-shien'],GPE,
Persia,[' province of'],"['Number of kingdoms in', 'Excellence of its horses']",[],GPE,
Pin-gui,[' city of'],[],['Pi-tcheou'],GPE,
Pope of Rome,[' his paramount influence in Europe'],[],[],PERSON,
Que-lin-fu,[' city of'],[],['Kien-ning-fou'],GPE,
Quen-gian-fu,[' city of'],[],['Si-ngan-fou'],GPE,
Rhinoceros,[],[],[],OTHERS,
Sartach,[' a Tartar chief'],[],[],PERSON,
Scassem,[' province and city of'],[],['Koondooz'],GPE,
Scythians,[' their early invasions of southern regions'],[],[],NORP,
Semenat,[' a kingdom of India'],[],['Sumnaut'],GPE,
Sergamon Borcam,[' story of'],[],[],PERSON,
Shamanism,[' widely diffused through Eastern Asia'],[],[],OTHERS,
Shamo,[],[],[' Cobi'],LOC,
Si-fan,[' a people of Thibet'],[],[],NORP,
Sin-din-fu,['province and city of'],[],['Tching-tou-fou'],GPE,
Sin-gui,[' city of'],[],['Tsi-ning-tcheou'],GPE,
Sin-gui,[' a city on the Kiang(Yang-tse-kiang)'],[],[],GPE,
Sin-gui,[' a great and noble city'],[],['Sou-teheou-fou'],GPE,
Sinugul,[' city of'],[],['Soui-tcheou'],GPE,
Sirocco,[' fatal effects of'],[],['simoom of the East'],OTHERS,
Sismondi,[' M'],[],[],PERSON,
Succiur,[' a city in the north-west of China'],[],['Sou-tcheou'],GPE,
Tam-pin-gui,[' city of'],[],[],GPE,
Teflis,[' a city of Armenia'],[],[],GPE,
Temugin,[' Khan of the Great Mongols'],['Changes his name to Gengis'],['Gengi'],PERSON,
Thibet,[' the chief seat of Boodhism'],[],[],GPE,
Ti-min-gui,[' poreelain manufactures of'],[],['King-te-ching'],GPE,
Tin-gui,[' city of'],[],[],GPE,
Tonocain,[' province of'],[],['Daumghaun'],GPE,
Turkestan,"[' a country of Central Asia', ' inhabited by Turks']",[],[],GPE,
Ughim,[' city of'],[],[],GPE,
Un-gui,['city of'],[],['Kia-hing'],GPE,
Un-quem,[' city of'],[],['Ming-tsing'],GPE,
Ural,[],[],[],LOC,
Vociam,[' city of'],['Kingdom of'],[],GPE,
Volga,[],[],[],LOC,
Waldshut,[' battle of'],[],[],GPE,
Yaci,[' a city of Thibet'],[],['Chiaki'],GPE,
Yang-tse-kiang or Kiang,[' a great river of China'],"['Yan-gui (Yang-tcheou-fou)', ' city of', ' which Marco Polo governed']",[],LOC,
Zanghibar,[' a country on the eastern coast of Africa'],[],['Zanguebar'],GPE,